<?xml version="1.0" encoding="utf-8" standalone="no"?>
<!DOCTYPE svg PUBLIC "-//W3C//DTD SVG 1.1//EN"
  "http://www.w3.org/Graphics/SVG/1.1/DTD/svg11.dtd">
<svg xmlns:xlink="http://www.w3.org/1999/xlink" width="959.849688pt" height="721.097031pt" viewBox="0 0 959.849688 721.097031" xmlns="http://www.w3.org/2000/svg" version="1.1">
 <metadata>
  <rdf:RDF xmlns:dc="http://purl.org/dc/elements/1.1/" xmlns:cc="http://creativecommons.org/ns#" xmlns:rdf="http://www.w3.org/1999/02/22-rdf-syntax-ns#">
   <cc:Work>
    <dc:type rdf:resource="http://purl.org/dc/dcmitype/StillImage"/>
    <dc:date>2023-06-03T18:20:15.718695</dc:date>
    <dc:format>image/svg+xml</dc:format>
    <dc:creator>
     <cc:Agent>
      <dc:title>Matplotlib v3.7.1, https://matplotlib.org/</dc:title>
     </cc:Agent>
    </dc:creator>
   </cc:Work>
  </rdf:RDF>
 </metadata>
 <defs>
  <style type="text/css">*{stroke-linejoin: round; stroke-linecap: butt}</style>
 </defs>
 <g id="figure_1">
  <g id="patch_1">
   <path d="M 0 721.097031 
L 959.849688 721.097031 
L 959.849688 0 
L 0 0 
z
" style="fill: #ffffff"/>
  </g>
  <g id="axes_1">
   <g id="patch_2">
    <path d="M 91.849688 630.830781 
L 649.849687 630.830781 
L 649.849687 87.230781 
L 91.849688 87.230781 
z
" style="fill: #ffffff"/>
   </g>
   <g id="patch_3">
    <path d="M 103.009688 626.338219 
L 136.489688 626.338219 
L 136.489688 222.007641 
L 103.009688 222.007641 
z
" clip-path="url(#p539d9b97c6)" style="fill: #e57aa5"/>
   </g>
   <g id="patch_4">
    <path d="M 158.809687 626.338219 
L 192.289687 626.338219 
L 192.289687 132.156401 
L 158.809687 132.156401 
z
" clip-path="url(#p539d9b97c6)" style="fill: #e57aa5"/>
   </g>
   <g id="patch_5">
    <path d="M 214.609688 626.338219 
L 248.089687 626.338219 
L 248.089687 132.156401 
L 214.609688 132.156401 
z
" clip-path="url(#p539d9b97c6)" style="fill: #e57aa5"/>
   </g>
   <g id="patch_6">
    <path d="M 270.409688 626.338219 
L 303.889688 626.338219 
L 303.889688 491.56136 
L 270.409688 491.56136 
z
" clip-path="url(#p539d9b97c6)" style="fill: #e57aa5"/>
   </g>
   <g id="patch_7">
    <path d="M 326.209688 626.338219 
L 359.689687 626.338219 
L 359.689687 446.63574 
L 326.209688 446.63574 
z
" clip-path="url(#p539d9b97c6)" style="fill: #e57aa5"/>
   </g>
   <g id="patch_8">
    <path d="M 382.009688 626.338219 
L 415.489688 626.338219 
L 415.489688 222.007641 
L 382.009688 222.007641 
z
" clip-path="url(#p539d9b97c6)" style="fill: #e57aa5"/>
   </g>
   <g id="patch_9">
    <path d="M 437.809688 626.338219 
L 471.289688 626.338219 
L 471.289688 401.71012 
L 437.809688 401.71012 
z
" clip-path="url(#p539d9b97c6)" style="fill: #e57aa5"/>
   </g>
   <g id="patch_10">
    <path d="M 493.609688 626.338219 
L 527.089687 626.338219 
L 527.089687 132.156401 
L 493.609688 132.156401 
z
" clip-path="url(#p539d9b97c6)" style="fill: #e57aa5"/>
   </g>
   <g id="patch_11">
    <path d="M 549.409688 626.338219 
L 582.889688 626.338219 
L 582.889688 177.082021 
L 549.409688 177.082021 
z
" clip-path="url(#p539d9b97c6)" style="fill: #e57aa5"/>
   </g>
   <g id="patch_12">
    <path d="M 605.209687 626.338219 
L 638.689687 626.338219 
L 638.689687 266.933261 
L 605.209687 266.933261 
z
" clip-path="url(#p539d9b97c6)" style="fill: #e57aa5"/>
   </g>
   <g id="patch_13">
    <path d="M 103.009688 626.338219 
L 136.489688 626.338219 
L 136.489688 222.007641 
L 103.009688 222.007641 
z
" clip-path="url(#p539d9b97c6)" style="fill: #336097"/>
   </g>
   <g id="patch_14">
    <path d="M 158.809687 626.338219 
L 192.289687 626.338219 
L 192.289687 222.007641 
L 158.809687 222.007641 
z
" clip-path="url(#p539d9b97c6)" style="fill: #336097"/>
   </g>
   <g id="patch_15">
    <path d="M 214.609688 626.338219 
L 248.089687 626.338219 
L 248.089687 222.007641 
L 214.609688 222.007641 
z
" clip-path="url(#p539d9b97c6)" style="fill: #336097"/>
   </g>
   <g id="patch_16">
    <path d="M 270.409688 626.338219 
L 303.889688 626.338219 
L 303.889688 491.56136 
L 270.409688 491.56136 
z
" clip-path="url(#p539d9b97c6)" style="fill: #336097"/>
   </g>
   <g id="patch_17">
    <path d="M 326.209688 626.338219 
L 359.689687 626.338219 
L 359.689687 446.63574 
L 326.209688 446.63574 
z
" clip-path="url(#p539d9b97c6)" style="fill: #336097"/>
   </g>
   <g id="patch_18">
    <path d="M 382.009688 626.338219 
L 415.489688 626.338219 
L 415.489688 222.007641 
L 382.009688 222.007641 
z
" clip-path="url(#p539d9b97c6)" style="fill: #336097"/>
   </g>
   <g id="patch_19">
    <path d="M 437.809688 626.338219 
L 471.289688 626.338219 
L 471.289688 401.71012 
L 437.809688 401.71012 
z
" clip-path="url(#p539d9b97c6)" style="fill: #336097"/>
   </g>
   <g id="patch_20">
    <path d="M 493.609688 626.338219 
L 527.089687 626.338219 
L 527.089687 132.156401 
L 493.609688 132.156401 
z
" clip-path="url(#p539d9b97c6)" style="fill: #336097"/>
   </g>
   <g id="patch_21">
    <path d="M 549.409688 626.338219 
L 582.889688 626.338219 
L 582.889688 177.082021 
L 549.409688 177.082021 
z
" clip-path="url(#p539d9b97c6)" style="fill: #336097"/>
   </g>
   <g id="patch_22">
    <path d="M 605.209687 626.338219 
L 638.689687 626.338219 
L 638.689687 266.933261 
L 605.209687 266.933261 
z
" clip-path="url(#p539d9b97c6)" style="fill: #336097"/>
   </g>
   <g id="patch_23">
    <path d="M 103.009688 626.338219 
L 136.489688 626.338219 
L 136.489688 536.48698 
L 103.009688 536.48698 
z
" clip-path="url(#p539d9b97c6)" style="fill: #51a9b4"/>
   </g>
   <g id="patch_24">
    <path d="M 158.809687 626.338219 
L 192.289687 626.338219 
L 192.289687 446.63574 
L 158.809687 446.63574 
z
" clip-path="url(#p539d9b97c6)" style="fill: #51a9b4"/>
   </g>
   <g id="patch_25">
    <path d="M 214.609688 626.338219 
L 248.089687 626.338219 
L 248.089687 356.7845 
L 214.609688 356.7845 
z
" clip-path="url(#p539d9b97c6)" style="fill: #51a9b4"/>
   </g>
   <g id="patch_26">
    <path d="M 270.409688 626.338219 
L 303.889688 626.338219 
L 303.889688 536.48698 
L 270.409688 536.48698 
z
" clip-path="url(#p539d9b97c6)" style="fill: #51a9b4"/>
   </g>
   <g id="patch_27">
    <path d="M 326.209688 626.338219 
L 359.689687 626.338219 
L 359.689687 446.63574 
L 326.209688 446.63574 
z
" clip-path="url(#p539d9b97c6)" style="fill: #51a9b4"/>
   </g>
   <g id="patch_28">
    <path d="M 382.009688 626.338219 
L 415.489688 626.338219 
L 415.489688 401.71012 
L 382.009688 401.71012 
z
" clip-path="url(#p539d9b97c6)" style="fill: #51a9b4"/>
   </g>
   <g id="patch_29">
    <path d="M 437.809688 626.338219 
L 471.289688 626.338219 
L 471.289688 491.56136 
L 437.809688 491.56136 
z
" clip-path="url(#p539d9b97c6)" style="fill: #51a9b4"/>
   </g>
   <g id="patch_30">
    <path d="M 493.609688 626.338219 
L 527.089687 626.338219 
L 527.089687 311.85888 
L 493.609688 311.85888 
z
" clip-path="url(#p539d9b97c6)" style="fill: #51a9b4"/>
   </g>
   <g id="patch_31">
    <path d="M 549.409688 626.338219 
L 582.889688 626.338219 
L 582.889688 356.7845 
L 549.409688 356.7845 
z
" clip-path="url(#p539d9b97c6)" style="fill: #51a9b4"/>
   </g>
   <g id="patch_32">
    <path d="M 605.209687 626.338219 
L 638.689687 626.338219 
L 638.689687 491.56136 
L 605.209687 491.56136 
z
" clip-path="url(#p539d9b97c6)" style="fill: #51a9b4"/>
   </g>
   <g id="patch_33">
    <path d="M 103.009688 626.338219 
L 136.489688 626.338219 
L 136.489688 536.48698 
L 103.009688 536.48698 
z
" clip-path="url(#p539d9b97c6)" style="fill: #a8d3b6"/>
   </g>
   <g id="patch_34">
    <path d="M 158.809687 626.338219 
L 192.289687 626.338219 
L 192.289687 491.56136 
L 158.809687 491.56136 
z
" clip-path="url(#p539d9b97c6)" style="fill: #a8d3b6"/>
   </g>
   <g id="patch_35">
    <path d="M 214.609688 626.338219 
L 248.089687 626.338219 
L 248.089687 401.71012 
L 214.609688 401.71012 
z
" clip-path="url(#p539d9b97c6)" style="fill: #a8d3b6"/>
   </g>
   <g id="patch_36">
    <path d="M 270.409688 626.338219 
L 303.889688 626.338219 
L 303.889688 626.338219 
L 270.409688 626.338219 
z
" clip-path="url(#p539d9b97c6)" style="fill: #a8d3b6"/>
   </g>
   <g id="patch_37">
    <path d="M 326.209688 626.338219 
L 359.689687 626.338219 
L 359.689687 446.63574 
L 326.209688 446.63574 
z
" clip-path="url(#p539d9b97c6)" style="fill: #a8d3b6"/>
   </g>
   <g id="patch_38">
    <path d="M 382.009688 626.338219 
L 415.489688 626.338219 
L 415.489688 491.56136 
L 382.009688 491.56136 
z
" clip-path="url(#p539d9b97c6)" style="fill: #a8d3b6"/>
   </g>
   <g id="patch_39">
    <path d="M 437.809688 626.338219 
L 471.289688 626.338219 
L 471.289688 536.48698 
L 437.809688 536.48698 
z
" clip-path="url(#p539d9b97c6)" style="fill: #a8d3b6"/>
   </g>
   <g id="patch_40">
    <path d="M 493.609688 626.338219 
L 527.089687 626.338219 
L 527.089687 536.48698 
L 493.609688 536.48698 
z
" clip-path="url(#p539d9b97c6)" style="fill: #a8d3b6"/>
   </g>
   <g id="patch_41">
    <path d="M 549.409688 626.338219 
L 582.889688 626.338219 
L 582.889688 401.71012 
L 549.409688 401.71012 
z
" clip-path="url(#p539d9b97c6)" style="fill: #a8d3b6"/>
   </g>
   <g id="patch_42">
    <path d="M 605.209687 626.338219 
L 638.689687 626.338219 
L 638.689687 581.412599 
L 605.209687 581.412599 
z
" clip-path="url(#p539d9b97c6)" style="fill: #a8d3b6"/>
   </g>
   <g id="matplotlib.axis_1">
    <g id="xtick_1">
     <g id="line2d_1">
      <defs>
       <path id="mf669be898f" d="M 0 0 
L 0 3.5 
" style="stroke: #000000; stroke-width: 2"/>
      </defs>
      <g>
       <use xlink:href="#mf669be898f" x="119.749688" y="640.830781" style="stroke: #000000; stroke-width: 2"/>
      </g>
     </g>
     <g id="text_1">
      <!-- 1 -->
      <g transform="translate(116.392969 660.827344) scale(0.18 -0.18)">
       <defs>
        <path id="OverpassNerdFontComplete-Regular-31" d="M 1005 0 
L 1562 0 
L 1562 4480 
L 1158 4480 
C 1024 4077 698 3949 256 3949 
L 256 3571 
L 1005 3571 
L 1005 0 
z
" transform="scale(0.015625)"/>
       </defs>
       <use xlink:href="#OverpassNerdFontComplete-Regular-31"/>
      </g>
     </g>
    </g>
    <g id="xtick_2">
     <g id="line2d_2">
      <g>
       <use xlink:href="#mf669be898f" x="175.549688" y="640.830781" style="stroke: #000000; stroke-width: 2"/>
      </g>
     </g>
     <g id="text_2">
      <!-- 2 -->
      <g transform="translate(170.041406 660.827344) scale(0.18 -0.18)">
       <defs>
        <path id="OverpassNerdFontComplete-Regular-32" d="M 448 0 
L 3462 0 
L 3462 544 
L 1094 544 
C 1197 1062 1632 1395 2182 1715 
C 2842 2106 3424 2477 3424 3264 
C 3424 4032 2886 4557 1990 4557 
C 1248 4557 691 4154 518 3603 
L 1018 3379 
C 1146 3776 1421 4038 1971 4038 
C 2509 4038 2848 3706 2848 3277 
C 2848 2771 2406 2477 1933 2189 
C 1197 1760 448 1178 448 0 
z
" transform="scale(0.015625)"/>
       </defs>
       <use xlink:href="#OverpassNerdFontComplete-Regular-32"/>
      </g>
     </g>
    </g>
    <g id="xtick_3">
     <g id="line2d_3">
      <g>
       <use xlink:href="#mf669be898f" x="231.349688" y="640.830781" style="stroke: #000000; stroke-width: 2"/>
      </g>
     </g>
     <g id="text_3">
      <!-- 3 -->
      <g transform="translate(225.931406 660.827344) scale(0.18 -0.18)">
       <defs>
        <path id="OverpassNerdFontComplete-Regular-33" d="M 1862 -77 
C 2720 -77 3405 448 3405 1274 
C 3405 1824 3117 2208 2656 2394 
C 3027 2586 3232 2963 3232 3366 
C 3232 4051 2662 4557 1882 4557 
C 1146 4557 672 4141 474 3629 
L 992 3430 
C 1126 3718 1389 4032 1882 4032 
C 2330 4032 2650 3757 2650 3302 
C 2650 2880 2336 2592 1862 2592 
L 1574 2592 
L 1574 2067 
L 1894 2067 
C 2522 2067 2822 1728 2822 1254 
C 2822 704 2387 454 1862 454 
C 1408 454 1062 666 851 1178 
L 333 966 
C 563 358 1030 -77 1862 -77 
z
" transform="scale(0.015625)"/>
       </defs>
       <use xlink:href="#OverpassNerdFontComplete-Regular-33"/>
      </g>
     </g>
    </g>
    <g id="xtick_4">
     <g id="line2d_4">
      <g>
       <use xlink:href="#mf669be898f" x="287.149688" y="640.830781" style="stroke: #000000; stroke-width: 2"/>
      </g>
     </g>
     <g id="text_4">
      <!-- 4 -->
      <g transform="translate(281.56125 660.827344) scale(0.18 -0.18)">
       <defs>
        <path id="OverpassNerdFontComplete-Regular-34" d="M 2451 0 
L 3008 0 
L 3008 1114 
L 3642 1114 
L 3642 1613 
L 3008 1613 
L 3008 4480 
L 2483 4480 
L 160 1446 
L 160 1114 
L 2451 1114 
L 2451 0 
z
M 2451 1613 
L 890 1613 
L 2451 3693 
L 2451 1613 
z
" transform="scale(0.015625)"/>
       </defs>
       <use xlink:href="#OverpassNerdFontComplete-Regular-34"/>
      </g>
     </g>
    </g>
    <g id="xtick_5">
     <g id="line2d_5">
      <g>
       <use xlink:href="#mf669be898f" x="342.949688" y="640.830781" style="stroke: #000000; stroke-width: 2"/>
      </g>
     </g>
     <g id="text_5">
      <!-- 5 -->
      <g transform="translate(337.36125 660.827344) scale(0.18 -0.18)">
       <defs>
        <path id="OverpassNerdFontComplete-Regular-35" d="M 1862 -77 
C 2880 -77 3533 627 3533 1478 
C 3533 2272 2976 2918 2099 2918 
C 1734 2918 1389 2797 1158 2611 
L 1331 3962 
L 3238 3962 
L 3238 4480 
L 845 4480 
L 582 2214 
L 1133 2022 
C 1306 2214 1613 2387 2035 2387 
C 2586 2387 2950 2003 2950 1440 
C 2950 877 2496 435 1856 435 
C 1306 435 1011 627 762 845 
L 429 416 
C 646 186 1139 -77 1862 -77 
z
" transform="scale(0.015625)"/>
       </defs>
       <use xlink:href="#OverpassNerdFontComplete-Regular-35"/>
      </g>
     </g>
    </g>
    <g id="xtick_6">
     <g id="line2d_6">
      <g>
       <use xlink:href="#mf669be898f" x="398.749687" y="640.830781" style="stroke: #000000; stroke-width: 2"/>
      </g>
     </g>
     <g id="text_6">
      <!-- 6 -->
      <g transform="translate(393.376406 660.827344) scale(0.18 -0.18)">
       <defs>
        <path id="OverpassNerdFontComplete-Regular-36" d="M 1933 -77 
C 2784 -77 3424 538 3424 1389 
C 3424 2163 2842 2797 2067 2797 
C 1626 2797 1280 2650 1088 2432 
C 1274 3251 1990 3878 2784 4064 
L 2784 4557 
C 1293 4250 416 3040 416 1658 
C 416 678 922 -77 1933 -77 
z
M 1926 448 
C 1389 448 979 813 979 1357 
C 979 1914 1376 2278 1926 2278 
C 2490 2278 2867 1914 2867 1357 
C 2867 813 2483 448 1926 448 
z
" transform="scale(0.015625)"/>
       </defs>
       <use xlink:href="#OverpassNerdFontComplete-Regular-36"/>
      </g>
     </g>
    </g>
    <g id="xtick_7">
     <g id="line2d_7">
      <g>
       <use xlink:href="#mf669be898f" x="454.549688" y="640.830781" style="stroke: #000000; stroke-width: 2"/>
      </g>
     </g>
     <g id="text_7">
      <!-- 7 -->
      <g transform="translate(449.851406 660.827344) scale(0.18 -0.18)">
       <defs>
        <path id="OverpassNerdFontComplete-Regular-37" d="M 1120 0 
L 1690 0 
C 1696 1050 1946 2675 3072 3974 
L 3072 4480 
L 224 4480 
L 224 3962 
L 2451 3962 
C 1485 2675 1133 1466 1120 0 
z
" transform="scale(0.015625)"/>
       </defs>
       <use xlink:href="#OverpassNerdFontComplete-Regular-37"/>
      </g>
     </g>
    </g>
    <g id="xtick_8">
     <g id="line2d_8">
      <g>
       <use xlink:href="#mf669be898f" x="510.349688" y="640.830781" style="stroke: #000000; stroke-width: 2"/>
      </g>
     </g>
     <g id="text_8">
      <!-- 8 -->
      <g transform="translate(504.85125 660.827344) scale(0.18 -0.18)">
       <defs>
        <path id="OverpassNerdFontComplete-Regular-38" d="M 1952 -77 
C 2842 -77 3462 506 3462 1286 
C 3462 1843 3149 2266 2688 2464 
C 3066 2650 3264 2989 3264 3392 
C 3264 4038 2726 4557 1952 4557 
C 1184 4557 646 4038 646 3392 
C 646 2989 851 2650 1216 2464 
C 768 2272 448 1843 448 1286 
C 448 506 1069 -77 1952 -77 
z
M 1952 2688 
C 1504 2688 1210 2976 1210 3347 
C 1210 3770 1523 4038 1952 4038 
C 2387 4038 2701 3770 2701 3347 
C 2701 2976 2400 2688 1952 2688 
z
M 1952 448 
C 1414 448 1024 787 1024 1331 
C 1024 1811 1402 2221 1952 2221 
C 2502 2221 2886 1811 2886 1331 
C 2886 787 2490 448 1952 448 
z
" transform="scale(0.015625)"/>
       </defs>
       <use xlink:href="#OverpassNerdFontComplete-Regular-38"/>
      </g>
     </g>
    </g>
    <g id="xtick_9">
     <g id="line2d_9">
      <g>
       <use xlink:href="#mf669be898f" x="566.149688" y="640.830781" style="stroke: #000000; stroke-width: 2"/>
      </g>
     </g>
     <g id="text_9">
      <!-- 9 -->
      <g transform="translate(560.776406 660.827344) scale(0.18 -0.18)">
       <defs>
        <path id="OverpassNerdFontComplete-Regular-39" d="M 1114 -77 
C 2554 128 3379 1350 3379 2822 
C 3379 3808 2906 4557 1888 4557 
C 1011 4557 365 3942 365 3098 
C 365 2291 960 1690 1741 1690 
C 2195 1690 2541 1856 2720 2074 
C 2566 1152 1888 582 1114 442 
L 1114 -77 
z
M 1869 2208 
C 1293 2208 934 2573 934 3123 
C 934 3642 1312 4019 1869 4019 
C 2406 4019 2803 3642 2803 3123 
C 2803 2579 2419 2208 1869 2208 
z
" transform="scale(0.015625)"/>
       </defs>
       <use xlink:href="#OverpassNerdFontComplete-Regular-39"/>
      </g>
     </g>
    </g>
    <g id="xtick_10">
     <g id="line2d_10">
      <g>
       <use xlink:href="#mf669be898f" x="621.949688" y="640.830781" style="stroke: #000000; stroke-width: 2"/>
      </g>
     </g>
     <g id="text_10">
      <!-- 10 -->
      <g transform="translate(612.841406 660.827344) scale(0.18 -0.18)">
       <defs>
        <path id="OverpassNerdFontComplete-Regular-30" d="M 2048 -77 
C 3296 -77 3616 1254 3616 2240 
C 3616 3341 3251 4557 2048 4557 
C 787 4557 480 3226 480 2240 
C 480 1126 845 -77 2048 -77 
z
M 2048 448 
C 1261 448 1056 1357 1056 2240 
C 1056 3040 1229 4038 2048 4038 
C 2829 4038 3027 3123 3027 2240 
C 3027 1440 2861 448 2048 448 
z
" transform="scale(0.015625)"/>
       </defs>
       <use xlink:href="#OverpassNerdFontComplete-Regular-31"/>
       <use xlink:href="#OverpassNerdFontComplete-Regular-30" x="37.299988"/>
      </g>
     </g>
    </g>
    <g id="text_11">
     <!-- episode -->
     <g transform="translate(339.501563 681.460469) scale(0.18 -0.18)">
      <defs>
       <path id="OverpassNerdFontComplete-Regular-65" d="M 1792 -77 
C 2234 -77 2605 102 2848 346 
L 2509 723 
C 2304 518 2054 429 1805 429 
C 1312 429 954 819 909 1421 
L 3123 1421 
C 3136 1549 3142 1690 3142 1792 
C 3142 2867 2528 3347 1792 3347 
C 922 3347 339 2720 339 1638 
C 339 640 896 -77 1792 -77 
z
M 902 1894 
C 934 2566 1318 2854 1792 2854 
C 2138 2854 2573 2637 2579 1894 
L 902 1894 
z
" transform="scale(0.015625)"/>
       <path id="OverpassNerdFontComplete-Regular-70" d="M 1926 -77 
C 2720 -77 3277 550 3277 1638 
C 3277 2688 2758 3347 1926 3347 
C 1517 3347 1280 3187 1088 2995 
L 1088 3270 
L 531 3270 
L 531 -1293 
L 1088 -1030 
L 1088 307 
C 1261 102 1504 -77 1926 -77 
z
M 1856 442 
C 1523 442 1274 640 1088 883 
L 1088 2394 
C 1248 2675 1523 2835 1856 2835 
C 2394 2835 2707 2349 2707 1638 
C 2707 864 2400 442 1856 442 
z
" transform="scale(0.015625)"/>
       <path id="OverpassNerdFontComplete-Regular-69" d="M 813 3866 
C 1011 3866 1165 4019 1165 4211 
C 1165 4410 1011 4570 813 4570 
C 621 4570 467 4410 467 4211 
C 467 4019 621 3866 813 3866 
z
M 538 0 
L 1094 0 
L 1094 3270 
L 538 3270 
L 538 0 
z
" transform="scale(0.015625)"/>
       <path id="OverpassNerdFontComplete-Regular-73" d="M 1498 -77 
C 2208 -77 2662 262 2662 851 
C 2662 1472 2195 1728 1600 1939 
C 1235 2086 909 2208 909 2483 
C 909 2714 1120 2848 1453 2848 
C 1805 2848 2035 2682 2176 2534 
L 2560 2854 
C 2323 3136 1958 3347 1459 3347 
C 832 3347 358 3021 358 2483 
C 358 1946 768 1683 1370 1459 
C 1754 1312 2118 1165 2118 838 
C 2118 550 1856 422 1510 422 
C 1158 422 877 634 710 813 
L 314 474 
C 570 147 1018 -77 1498 -77 
z
" transform="scale(0.015625)"/>
       <path id="OverpassNerdFontComplete-Regular-6f" d="M 1786 -77 
C 2662 -77 3232 563 3232 1638 
C 3232 2720 2662 3347 1786 3347 
C 909 3347 339 2707 339 1632 
C 339 550 909 -77 1786 -77 
z
M 1786 442 
C 1229 442 902 890 902 1632 
C 902 2394 1229 2835 1786 2835 
C 2342 2835 2669 2381 2669 1638 
C 2669 890 2336 442 1786 442 
z
" transform="scale(0.015625)"/>
       <path id="OverpassNerdFontComplete-Regular-64" d="M 1690 -77 
C 2080 -77 2330 64 2515 256 
L 2515 0 
L 3072 0 
L 3072 4621 
L 2515 4358 
L 2515 3040 
C 2330 3206 2074 3347 1690 3347 
C 877 3347 339 2714 339 1638 
C 339 582 858 -77 1690 -77 
z
M 1766 442 
C 1229 442 902 960 902 1638 
C 902 2406 1216 2835 1766 2835 
C 2144 2835 2394 2611 2515 2419 
L 2515 883 
C 2349 602 2074 442 1766 442 
z
" transform="scale(0.015625)"/>
      </defs>
      <use xlink:href="#OverpassNerdFontComplete-Regular-65"/>
      <use xlink:href="#OverpassNerdFontComplete-Regular-70" x="53.799988"/>
      <use xlink:href="#OverpassNerdFontComplete-Regular-69" x="110.199982"/>
      <use xlink:href="#OverpassNerdFontComplete-Regular-73" x="135.599976"/>
      <use xlink:href="#OverpassNerdFontComplete-Regular-6f" x="182.499969"/>
      <use xlink:href="#OverpassNerdFontComplete-Regular-64" x="238.299957"/>
      <use xlink:href="#OverpassNerdFontComplete-Regular-65" x="294.499954"/>
     </g>
    </g>
   </g>
   <g id="matplotlib.axis_2">
    <g id="ytick_1">
     <g id="line2d_11">
      <defs>
       <path id="m755e1b3639" d="M 0 0 
L -3.5 0 
" style="stroke: #000000; stroke-width: 2"/>
      </defs>
      <g>
       <use xlink:href="#m755e1b3639" x="81.849688" y="626.338219" style="stroke: #000000; stroke-width: 2"/>
      </g>
     </g>
     <g id="text_12">
      <!-- 0 -->
      <g transform="translate(63.346563 632.836501) scale(0.18 -0.18)">
       <use xlink:href="#OverpassNerdFontComplete-Regular-30"/>
      </g>
     </g>
    </g>
    <g id="ytick_2">
     <g id="line2d_12">
      <g>
       <use xlink:href="#m755e1b3639" x="81.849688" y="536.48698" style="stroke: #000000; stroke-width: 2"/>
      </g>
     </g>
     <g id="text_13">
      <!-- 2 -->
      <g transform="translate(63.833125 542.985261) scale(0.18 -0.18)">
       <use xlink:href="#OverpassNerdFontComplete-Regular-32"/>
      </g>
     </g>
    </g>
    <g id="ytick_3">
     <g id="line2d_13">
      <g>
       <use xlink:href="#m755e1b3639" x="81.849688" y="446.63574" style="stroke: #000000; stroke-width: 2"/>
      </g>
     </g>
     <g id="text_14">
      <!-- 4 -->
      <g transform="translate(63.672813 453.134021) scale(0.18 -0.18)">
       <use xlink:href="#OverpassNerdFontComplete-Regular-34"/>
      </g>
     </g>
    </g>
    <g id="ytick_4">
     <g id="line2d_14">
      <g>
       <use xlink:href="#m755e1b3639" x="81.849688" y="356.7845" style="stroke: #000000; stroke-width: 2"/>
      </g>
     </g>
     <g id="text_15">
      <!-- 6 -->
      <g transform="translate(64.103125 363.282782) scale(0.18 -0.18)">
       <use xlink:href="#OverpassNerdFontComplete-Regular-36"/>
      </g>
     </g>
    </g>
    <g id="ytick_5">
     <g id="line2d_15">
      <g>
       <use xlink:href="#m755e1b3639" x="81.849688" y="266.933261" style="stroke: #000000; stroke-width: 2"/>
      </g>
     </g>
     <g id="text_16">
      <!-- 8 -->
      <g transform="translate(63.852812 273.431542) scale(0.18 -0.18)">
       <use xlink:href="#OverpassNerdFontComplete-Regular-38"/>
      </g>
     </g>
    </g>
    <g id="ytick_6">
     <g id="line2d_16">
      <g>
       <use xlink:href="#m755e1b3639" x="81.849688" y="177.082021" style="stroke: #000000; stroke-width: 2"/>
      </g>
     </g>
     <g id="text_17">
      <!-- 10 -->
      <g transform="translate(56.633125 183.580302) scale(0.18 -0.18)">
       <use xlink:href="#OverpassNerdFontComplete-Regular-31"/>
       <use xlink:href="#OverpassNerdFontComplete-Regular-30" x="37.299988"/>
      </g>
     </g>
    </g>
    <g id="ytick_7">
     <g id="line2d_17">
      <g>
       <use xlink:href="#m755e1b3639" x="81.849688" y="87.230781" style="stroke: #000000; stroke-width: 2"/>
      </g>
     </g>
     <g id="text_18">
      <!-- 12 -->
      <g transform="translate(57.119687 93.729063) scale(0.18 -0.18)">
       <use xlink:href="#OverpassNerdFontComplete-Regular-31"/>
       <use xlink:href="#OverpassNerdFontComplete-Regular-32" x="37.299988"/>
      </g>
     </g>
    </g>
    <g id="text_19">
     <!-- count -->
     <g transform="translate(48.996563 382.0525) rotate(-90) scale(0.18 -0.18)">
      <defs>
       <path id="OverpassNerdFontComplete-Regular-63" d="M 1696 -77 
C 2298 -77 2733 224 2893 762 
L 2374 934 
C 2278 627 2035 448 1709 448 
C 1184 448 909 890 909 1632 
C 909 2368 1171 2829 1728 2829 
C 2048 2829 2246 2643 2342 2394 
L 2867 2586 
C 2682 3098 2266 3347 1722 3347 
C 864 3347 339 2707 339 1632 
C 339 550 864 -77 1696 -77 
z
" transform="scale(0.015625)"/>
       <path id="OverpassNerdFontComplete-Regular-75" d="M 2515 0 
L 3072 0 
L 3072 3270 
L 2515 3270 
L 2515 1286 
C 2515 646 2189 442 1760 442 
C 1357 442 1056 678 1056 1299 
L 1056 3270 
L 499 3270 
L 499 1382 
C 499 333 922 -77 1690 -77 
C 2035 -77 2298 32 2515 314 
L 2515 0 
z
" transform="scale(0.015625)"/>
       <path id="OverpassNerdFontComplete-Regular-6e" d="M 2547 0 
L 3104 0 
L 3104 1882 
C 3104 2938 2675 3347 1933 3347 
C 1581 3347 1293 3219 1088 2938 
L 1088 3270 
L 531 3270 
L 531 0 
L 1088 0 
L 1088 1990 
C 1088 2624 1414 2835 1843 2835 
C 2246 2835 2547 2598 2547 1978 
L 2547 0 
z
" transform="scale(0.015625)"/>
       <path id="OverpassNerdFontComplete-Regular-74" d="M 1414 -77 
C 1670 -77 1869 -19 2042 70 
L 2106 614 
C 1965 525 1805 442 1619 442 
C 1331 442 1280 640 1280 890 
L 1280 2784 
L 2086 2784 
L 2086 3270 
L 1280 3270 
L 1280 4621 
L 723 4352 
L 723 3270 
L 192 3270 
L 192 2784 
L 723 2784 
L 723 704 
C 723 243 922 -77 1414 -77 
z
" transform="scale(0.015625)"/>
      </defs>
      <use xlink:href="#OverpassNerdFontComplete-Regular-63"/>
      <use xlink:href="#OverpassNerdFontComplete-Regular-6f" x="49.999985"/>
      <use xlink:href="#OverpassNerdFontComplete-Regular-75" x="105.799973"/>
      <use xlink:href="#OverpassNerdFontComplete-Regular-6e" x="162.09996"/>
      <use xlink:href="#OverpassNerdFontComplete-Regular-74" x="218.399948"/>
     </g>
    </g>
   </g>
   <g id="line2d_18">
    <path clip-path="url(#p539d9b97c6)" style="fill: none; stroke: #424242; stroke-width: 2.7; stroke-linecap: square"/>
   </g>
   <g id="line2d_19">
    <path clip-path="url(#p539d9b97c6)" style="fill: none; stroke: #424242; stroke-width: 2.7; stroke-linecap: square"/>
   </g>
   <g id="line2d_20">
    <path clip-path="url(#p539d9b97c6)" style="fill: none; stroke: #424242; stroke-width: 2.7; stroke-linecap: square"/>
   </g>
   <g id="line2d_21">
    <path clip-path="url(#p539d9b97c6)" style="fill: none; stroke: #424242; stroke-width: 2.7; stroke-linecap: square"/>
   </g>
   <g id="line2d_22">
    <path clip-path="url(#p539d9b97c6)" style="fill: none; stroke: #424242; stroke-width: 2.7; stroke-linecap: square"/>
   </g>
   <g id="line2d_23">
    <path clip-path="url(#p539d9b97c6)" style="fill: none; stroke: #424242; stroke-width: 2.7; stroke-linecap: square"/>
   </g>
   <g id="line2d_24">
    <path clip-path="url(#p539d9b97c6)" style="fill: none; stroke: #424242; stroke-width: 2.7; stroke-linecap: square"/>
   </g>
   <g id="line2d_25">
    <path clip-path="url(#p539d9b97c6)" style="fill: none; stroke: #424242; stroke-width: 2.7; stroke-linecap: square"/>
   </g>
   <g id="line2d_26">
    <path clip-path="url(#p539d9b97c6)" style="fill: none; stroke: #424242; stroke-width: 2.7; stroke-linecap: square"/>
   </g>
   <g id="line2d_27">
    <path clip-path="url(#p539d9b97c6)" style="fill: none; stroke: #424242; stroke-width: 2.7; stroke-linecap: square"/>
   </g>
   <g id="line2d_28">
    <path clip-path="url(#p539d9b97c6)" style="fill: none; stroke: #424242; stroke-width: 2.7; stroke-linecap: square"/>
   </g>
   <g id="line2d_29">
    <path clip-path="url(#p539d9b97c6)" style="fill: none; stroke: #424242; stroke-width: 2.7; stroke-linecap: square"/>
   </g>
   <g id="line2d_30">
    <path clip-path="url(#p539d9b97c6)" style="fill: none; stroke: #424242; stroke-width: 2.7; stroke-linecap: square"/>
   </g>
   <g id="line2d_31">
    <path clip-path="url(#p539d9b97c6)" style="fill: none; stroke: #424242; stroke-width: 2.7; stroke-linecap: square"/>
   </g>
   <g id="line2d_32">
    <path clip-path="url(#p539d9b97c6)" style="fill: none; stroke: #424242; stroke-width: 2.7; stroke-linecap: square"/>
   </g>
   <g id="line2d_33">
    <path clip-path="url(#p539d9b97c6)" style="fill: none; stroke: #424242; stroke-width: 2.7; stroke-linecap: square"/>
   </g>
   <g id="line2d_34">
    <path clip-path="url(#p539d9b97c6)" style="fill: none; stroke: #424242; stroke-width: 2.7; stroke-linecap: square"/>
   </g>
   <g id="line2d_35">
    <path clip-path="url(#p539d9b97c6)" style="fill: none; stroke: #424242; stroke-width: 2.7; stroke-linecap: square"/>
   </g>
   <g id="line2d_36">
    <path clip-path="url(#p539d9b97c6)" style="fill: none; stroke: #424242; stroke-width: 2.7; stroke-linecap: square"/>
   </g>
   <g id="line2d_37">
    <path clip-path="url(#p539d9b97c6)" style="fill: none; stroke: #424242; stroke-width: 2.7; stroke-linecap: square"/>
   </g>
   <g id="line2d_38">
    <path clip-path="url(#p539d9b97c6)" style="fill: none; stroke: #424242; stroke-width: 2.7; stroke-linecap: square"/>
   </g>
   <g id="line2d_39">
    <path clip-path="url(#p539d9b97c6)" style="fill: none; stroke: #424242; stroke-width: 2.7; stroke-linecap: square"/>
   </g>
   <g id="line2d_40">
    <path clip-path="url(#p539d9b97c6)" style="fill: none; stroke: #424242; stroke-width: 2.7; stroke-linecap: square"/>
   </g>
   <g id="line2d_41">
    <path clip-path="url(#p539d9b97c6)" style="fill: none; stroke: #424242; stroke-width: 2.7; stroke-linecap: square"/>
   </g>
   <g id="line2d_42">
    <path clip-path="url(#p539d9b97c6)" style="fill: none; stroke: #424242; stroke-width: 2.7; stroke-linecap: square"/>
   </g>
   <g id="line2d_43">
    <path clip-path="url(#p539d9b97c6)" style="fill: none; stroke: #424242; stroke-width: 2.7; stroke-linecap: square"/>
   </g>
   <g id="line2d_44">
    <path clip-path="url(#p539d9b97c6)" style="fill: none; stroke: #424242; stroke-width: 2.7; stroke-linecap: square"/>
   </g>
   <g id="line2d_45">
    <path clip-path="url(#p539d9b97c6)" style="fill: none; stroke: #424242; stroke-width: 2.7; stroke-linecap: square"/>
   </g>
   <g id="line2d_46">
    <path clip-path="url(#p539d9b97c6)" style="fill: none; stroke: #424242; stroke-width: 2.7; stroke-linecap: square"/>
   </g>
   <g id="line2d_47">
    <path clip-path="url(#p539d9b97c6)" style="fill: none; stroke: #424242; stroke-width: 2.7; stroke-linecap: square"/>
   </g>
   <g id="line2d_48">
    <path clip-path="url(#p539d9b97c6)" style="fill: none; stroke: #424242; stroke-width: 2.7; stroke-linecap: square"/>
   </g>
   <g id="line2d_49">
    <path clip-path="url(#p539d9b97c6)" style="fill: none; stroke: #424242; stroke-width: 2.7; stroke-linecap: square"/>
   </g>
   <g id="line2d_50">
    <path clip-path="url(#p539d9b97c6)" style="fill: none; stroke: #424242; stroke-width: 2.7; stroke-linecap: square"/>
   </g>
   <g id="line2d_51">
    <path clip-path="url(#p539d9b97c6)" style="fill: none; stroke: #424242; stroke-width: 2.7; stroke-linecap: square"/>
   </g>
   <g id="line2d_52">
    <path clip-path="url(#p539d9b97c6)" style="fill: none; stroke: #424242; stroke-width: 2.7; stroke-linecap: square"/>
   </g>
   <g id="line2d_53">
    <path clip-path="url(#p539d9b97c6)" style="fill: none; stroke: #424242; stroke-width: 2.7; stroke-linecap: square"/>
   </g>
   <g id="line2d_54">
    <path clip-path="url(#p539d9b97c6)" style="fill: none; stroke: #424242; stroke-width: 2.7; stroke-linecap: square"/>
   </g>
   <g id="line2d_55">
    <path clip-path="url(#p539d9b97c6)" style="fill: none; stroke: #424242; stroke-width: 2.7; stroke-linecap: square"/>
   </g>
   <g id="line2d_56">
    <path clip-path="url(#p539d9b97c6)" style="fill: none; stroke: #424242; stroke-width: 2.7; stroke-linecap: square"/>
   </g>
   <g id="line2d_57">
    <path clip-path="url(#p539d9b97c6)" style="fill: none; stroke: #424242; stroke-width: 2.7; stroke-linecap: square"/>
   </g>
   <g id="patch_43">
    <path d="M 81.849688 626.338219 
L 81.849688 87.230781 
" style="fill: none; stroke: #000000; stroke-width: 1.5; stroke-linejoin: miter; stroke-linecap: square"/>
   </g>
   <g id="patch_44">
    <path d="M 119.749688 640.830781 
L 621.949688 640.830781 
" style="fill: none; stroke: #000000; stroke-width: 1.5; stroke-linejoin: miter; stroke-linecap: square"/>
   </g>
   <g id="text_20">
    <!-- Script source ~ Springfield! Springfield! -->
    <g transform="translate(680.53625 630.067219) scale(0.14 -0.14)">
     <defs>
      <path id="OverpassNerdFontComplete-Italic-53" d="M 3200 3590 
L 3693 3782 
C 3571 4179 3174 4557 2483 4557 
C 1619 4557 1069 4045 1069 3360 
C 1069 2074 2918 2291 2918 1280 
C 2918 730 2547 435 1965 435 
C 1504 435 1210 678 1056 1107 
L 550 915 
C 704 358 1178 -77 1907 -77 
C 2816 -77 3488 422 3488 1325 
C 3488 2758 1626 2541 1626 3398 
C 1626 3776 1933 4058 2445 4058 
C 2874 4058 3091 3846 3200 3590 
z
" transform="scale(0.015625)"/>
      <path id="OverpassNerdFontComplete-Italic-63" d="M 1677 -77 
C 2253 -77 2688 237 2918 742 
L 2464 922 
C 2298 582 2035 429 1715 429 
C 1312 429 1114 768 1114 1299 
C 1114 2093 1446 2848 2112 2848 
C 2445 2848 2624 2656 2682 2406 
L 3200 2592 
C 3078 3066 2688 3347 2170 3347 
C 1203 3347 563 2502 563 1280 
C 563 461 998 -77 1677 -77 
z
" transform="scale(0.015625)"/>
      <path id="OverpassNerdFontComplete-Italic-72" d="M 512 0 
L 1050 0 
L 1376 1843 
C 1510 2592 1984 2810 2259 2810 
C 2464 2810 2592 2733 2682 2669 
L 2848 3187 
C 2752 3283 2592 3347 2419 3347 
C 2131 3347 1805 3187 1549 2848 
L 1626 3270 
L 1088 3270 
L 512 0 
z
" transform="scale(0.015625)"/>
      <path id="OverpassNerdFontComplete-Italic-69" d="M 1472 3872 
C 1670 3872 1862 4051 1862 4275 
C 1862 4435 1747 4563 1568 4563 
C 1376 4563 1184 4384 1184 4160 
C 1184 4000 1306 3872 1472 3872 
z
M 518 0 
L 1056 0 
L 1632 3270 
L 1094 3270 
L 518 0 
z
" transform="scale(0.015625)"/>
      <path id="OverpassNerdFontComplete-Italic-70" d="M 1952 -77 
C 2746 -77 3507 685 3507 1990 
C 3507 2816 3085 3347 2458 3347 
C 2035 3347 1760 3168 1574 2982 
L 1626 3270 
L 1088 3270 
L 282 -1299 
L 858 -1082 
L 1107 320 
C 1254 122 1510 -77 1952 -77 
z
M 1920 429 
C 1574 429 1350 608 1203 870 
L 1472 2394 
C 1645 2656 1946 2848 2304 2848 
C 2739 2848 2950 2483 2950 1933 
C 2950 1050 2541 429 1920 429 
z
" transform="scale(0.015625)"/>
      <path id="OverpassNerdFontComplete-Italic-74" d="M 1363 -77 
C 1600 -77 1786 -38 1971 58 
L 2112 582 
C 1965 499 1811 422 1613 422 
C 1414 422 1357 518 1357 678 
C 1357 742 1370 826 1382 922 
L 1715 2784 
L 2483 2784 
L 2566 3270 
L 1798 3270 
L 2035 4621 
L 1459 4410 
L 1254 3270 
L 730 3270 
L 640 2784 
L 1171 2784 
L 826 800 
C 806 698 794 595 794 512 
C 794 173 979 -77 1363 -77 
z
" transform="scale(0.015625)"/>
      <path id="OverpassNerdFontComplete-Italic-20" transform="scale(0.015625)"/>
      <path id="OverpassNerdFontComplete-Italic-73" d="M 1530 -77 
C 2266 -77 2739 307 2739 902 
C 2739 1958 1286 1869 1286 2438 
C 1286 2707 1536 2880 1869 2880 
C 2227 2880 2438 2701 2566 2547 
L 2957 2842 
C 2771 3136 2406 3347 1901 3347 
C 1261 3347 768 2995 768 2413 
C 768 1440 2202 1517 2202 890 
C 2202 563 1907 397 1562 397 
C 1222 397 960 608 819 819 
L 416 499 
C 621 166 1018 -77 1530 -77 
z
" transform="scale(0.015625)"/>
      <path id="OverpassNerdFontComplete-Italic-6f" d="M 1747 -77 
C 2842 -77 3411 998 3411 2003 
C 3411 2701 3053 3347 2227 3347 
C 1133 3347 550 2278 550 1280 
C 550 531 909 -77 1747 -77 
z
M 1760 429 
C 1293 429 1094 826 1094 1312 
C 1094 2029 1472 2848 2195 2848 
C 2682 2848 2867 2426 2867 1965 
C 2867 1242 2496 429 1760 429 
z
" transform="scale(0.015625)"/>
      <path id="OverpassNerdFontComplete-Italic-75" d="M 2432 0 
L 2976 0 
L 3552 3270 
L 3008 3270 
L 2662 1280 
C 2547 634 2170 429 1766 429 
C 1453 429 1216 602 1216 1030 
C 1216 1107 1222 1203 1248 1325 
L 1594 3270 
L 1050 3270 
L 717 1363 
C 691 1203 672 1069 672 934 
C 672 262 1043 -77 1619 -77 
C 1984 -77 2278 51 2490 314 
L 2432 0 
z
" transform="scale(0.015625)"/>
      <path id="OverpassNerdFontComplete-Italic-65" d="M 1747 -77 
C 2163 -77 2522 77 2816 314 
L 2560 698 
C 2310 506 2048 416 1811 416 
C 1357 416 1101 762 1101 1338 
L 1101 1421 
L 3232 1421 
C 3296 1619 3354 1843 3354 2112 
C 3354 2963 2899 3347 2214 3347 
C 1229 3347 544 2438 544 1299 
C 544 499 998 -77 1747 -77 
z
M 1178 1894 
C 1293 2400 1613 2861 2182 2861 
C 2496 2861 2810 2707 2822 2176 
C 2829 2093 2816 2003 2797 1894 
L 1178 1894 
z
" transform="scale(0.015625)"/>
      <path id="OverpassNerdFontComplete-Italic-7e" d="M 2995 1734 
C 3558 1734 3834 2170 3891 2650 
L 3552 2650 
C 3501 2419 3322 2259 3072 2259 
C 2694 2259 2336 2650 1818 2650 
C 1242 2650 973 2214 915 1734 
L 1254 1734 
C 1312 1965 1491 2125 1741 2125 
C 2125 2125 2483 1734 2995 1734 
z
" transform="scale(0.015625)"/>
      <path id="OverpassNerdFontComplete-Italic-6e" d="M 518 0 
L 1056 0 
L 1402 1958 
C 1491 2509 1875 2848 2291 2848 
C 2637 2848 2829 2637 2829 2253 
C 2829 2144 2816 2035 2797 1933 
L 2458 0 
L 2995 0 
L 3322 1824 
C 3354 1997 3366 2163 3366 2323 
C 3366 2989 3034 3347 2445 3347 
C 2106 3347 1792 3187 1574 2918 
L 1632 3270 
L 1094 3270 
L 518 0 
z
" transform="scale(0.015625)"/>
      <path id="OverpassNerdFontComplete-Italic-67" d="M 1050 -909 
L 1222 -1344 
C 2086 -1299 2758 -1094 2950 6 
L 3533 3270 
L 2995 3270 
L 2944 2982 
C 2746 3232 2445 3347 2157 3347 
C 1235 3347 563 2496 563 1267 
C 563 493 966 -77 1632 -77 
C 2048 -77 2310 109 2470 294 
L 2406 -77 
C 2317 -518 2022 -851 1050 -909 
z
M 1786 429 
C 1370 429 1107 781 1107 1331 
C 1107 2131 1485 2848 2170 2848 
C 2509 2848 2758 2630 2842 2406 
L 2579 902 
C 2419 646 2118 429 1786 429 
z
" transform="scale(0.015625)"/>
      <path id="OverpassNerdFontComplete-Italic-66" d="M 1677 2784 
L 2394 2784 
L 2477 3270 
L 1760 3270 
L 1843 3718 
C 1875 3891 1946 4064 2176 4064 
C 2330 4064 2458 4019 2605 3942 
L 2688 4403 
C 2541 4486 2374 4563 2138 4563 
C 1766 4563 1421 4403 1318 3840 
L 1216 3270 
L 704 3270 
L 621 2784 
L 1133 2784 
L 640 0 
L 1184 0 
L 1677 2784 
z
" transform="scale(0.015625)"/>
      <path id="OverpassNerdFontComplete-Italic-6c" d="M 538 0 
L 1082 0 
L 1894 4621 
L 1318 4410 
L 538 0 
z
" transform="scale(0.015625)"/>
      <path id="OverpassNerdFontComplete-Italic-64" d="M 1632 -77 
C 1984 -77 2272 51 2470 282 
L 2426 0 
L 2963 0 
L 3776 4621 
L 3200 4410 
L 2950 3027 
C 2835 3174 2605 3347 2208 3347 
C 1274 3347 563 2566 563 1325 
C 563 480 960 -77 1632 -77 
z
M 1773 429 
C 1318 429 1120 832 1120 1338 
C 1120 2208 1510 2848 2202 2848 
C 2573 2848 2771 2611 2848 2426 
L 2579 870 
C 2432 678 2144 429 1773 429 
z
" transform="scale(0.015625)"/>
      <path id="OverpassNerdFontComplete-Italic-21" d="M 1005 1235 
L 1171 1235 
L 1696 3155 
L 1946 4557 
L 1414 4557 
L 1165 3155 
L 1005 1235 
z
M 858 -90 
C 1126 -90 1357 154 1357 416 
C 1357 608 1216 781 992 781 
C 736 781 506 544 506 282 
C 506 90 640 -90 858 -90 
z
" transform="scale(0.015625)"/>
     </defs>
     <use xlink:href="#OverpassNerdFontComplete-Italic-53"/>
     <use xlink:href="#OverpassNerdFontComplete-Italic-63" x="57.299988"/>
     <use xlink:href="#OverpassNerdFontComplete-Italic-72" x="105.099976"/>
     <use xlink:href="#OverpassNerdFontComplete-Italic-69" x="143.09996"/>
     <use xlink:href="#OverpassNerdFontComplete-Italic-70" x="167.699951"/>
     <use xlink:href="#OverpassNerdFontComplete-Italic-74" x="222.199936"/>
     <use xlink:href="#OverpassNerdFontComplete-Italic-20" x="257.999924"/>
     <use xlink:href="#OverpassNerdFontComplete-Italic-73" x="280.099915"/>
     <use xlink:href="#OverpassNerdFontComplete-Italic-6f" x="325.199905"/>
     <use xlink:href="#OverpassNerdFontComplete-Italic-75" x="378.19989"/>
     <use xlink:href="#OverpassNerdFontComplete-Italic-72" x="432.599884"/>
     <use xlink:href="#OverpassNerdFontComplete-Italic-63" x="470.599869"/>
     <use xlink:href="#OverpassNerdFontComplete-Italic-65" x="518.399857"/>
     <use xlink:href="#OverpassNerdFontComplete-Italic-20" x="569.699844"/>
     <use xlink:href="#OverpassNerdFontComplete-Italic-7e" x="591.799835"/>
     <use xlink:href="#OverpassNerdFontComplete-Italic-20" x="654.79982"/>
     <use xlink:href="#OverpassNerdFontComplete-Italic-53" x="676.899811"/>
     <use xlink:href="#OverpassNerdFontComplete-Italic-70" x="734.199799"/>
     <use xlink:href="#OverpassNerdFontComplete-Italic-72" x="788.699783"/>
     <use xlink:href="#OverpassNerdFontComplete-Italic-69" x="826.699768"/>
     <use xlink:href="#OverpassNerdFontComplete-Italic-6e" x="851.299759"/>
     <use xlink:href="#OverpassNerdFontComplete-Italic-67" x="905.699753"/>
     <use xlink:href="#OverpassNerdFontComplete-Italic-66" x="959.89975"/>
     <use xlink:href="#OverpassNerdFontComplete-Italic-69" x="991.799744"/>
     <use xlink:href="#OverpassNerdFontComplete-Italic-65" x="1016.399734"/>
     <use xlink:href="#OverpassNerdFontComplete-Italic-6c" x="1067.699722"/>
     <use xlink:href="#OverpassNerdFontComplete-Italic-64" x="1093.199707"/>
     <use xlink:href="#OverpassNerdFontComplete-Italic-21" x="1147.399704"/>
     <use xlink:href="#OverpassNerdFontComplete-Italic-20" x="1174.399689"/>
     <use xlink:href="#OverpassNerdFontComplete-Italic-53" x="1196.49968"/>
     <use xlink:href="#OverpassNerdFontComplete-Italic-70" x="1253.799667"/>
     <use xlink:href="#OverpassNerdFontComplete-Italic-72" x="1308.299652"/>
     <use xlink:href="#OverpassNerdFontComplete-Italic-69" x="1346.299637"/>
     <use xlink:href="#OverpassNerdFontComplete-Italic-6e" x="1370.899628"/>
     <use xlink:href="#OverpassNerdFontComplete-Italic-67" x="1425.299622"/>
     <use xlink:href="#OverpassNerdFontComplete-Italic-66" x="1479.499619"/>
     <use xlink:href="#OverpassNerdFontComplete-Italic-69" x="1511.399612"/>
     <use xlink:href="#OverpassNerdFontComplete-Italic-65" x="1535.999603"/>
     <use xlink:href="#OverpassNerdFontComplete-Italic-6c" x="1587.299591"/>
     <use xlink:href="#OverpassNerdFontComplete-Italic-64" x="1612.799576"/>
     <use xlink:href="#OverpassNerdFontComplete-Italic-21" x="1666.999573"/>
    </g>
    <!-- - - - - - - - - - - - - - - - - - - - - - - - - - - - - - - - - - - - - - - - - - - - - - - -->
    <g transform="translate(664.617812 645.137344) scale(0.14 -0.14)">
     <defs>
      <path id="OverpassNerdFontComplete-Italic-2d" d="M 832 1638 
L 2266 1638 
L 2355 2170 
L 928 2170 
L 832 1638 
z
" transform="scale(0.015625)"/>
     </defs>
     <use xlink:href="#OverpassNerdFontComplete-Italic-2d"/>
     <use xlink:href="#OverpassNerdFontComplete-Italic-2d" x="39.299988"/>
     <use xlink:href="#OverpassNerdFontComplete-Italic-2d" x="78.599976"/>
     <use xlink:href="#OverpassNerdFontComplete-Italic-2d" x="117.899963"/>
     <use xlink:href="#OverpassNerdFontComplete-Italic-2d" x="157.199951"/>
     <use xlink:href="#OverpassNerdFontComplete-Italic-2d" x="196.499939"/>
     <use xlink:href="#OverpassNerdFontComplete-Italic-2d" x="235.799927"/>
     <use xlink:href="#OverpassNerdFontComplete-Italic-2d" x="275.099915"/>
     <use xlink:href="#OverpassNerdFontComplete-Italic-2d" x="314.399902"/>
     <use xlink:href="#OverpassNerdFontComplete-Italic-2d" x="353.69989"/>
     <use xlink:href="#OverpassNerdFontComplete-Italic-2d" x="392.999878"/>
     <use xlink:href="#OverpassNerdFontComplete-Italic-2d" x="432.299866"/>
     <use xlink:href="#OverpassNerdFontComplete-Italic-2d" x="471.599854"/>
     <use xlink:href="#OverpassNerdFontComplete-Italic-2d" x="510.899841"/>
     <use xlink:href="#OverpassNerdFontComplete-Italic-2d" x="550.199829"/>
     <use xlink:href="#OverpassNerdFontComplete-Italic-2d" x="589.499817"/>
     <use xlink:href="#OverpassNerdFontComplete-Italic-2d" x="628.799805"/>
     <use xlink:href="#OverpassNerdFontComplete-Italic-2d" x="668.099792"/>
     <use xlink:href="#OverpassNerdFontComplete-Italic-2d" x="707.39978"/>
     <use xlink:href="#OverpassNerdFontComplete-Italic-2d" x="746.699768"/>
     <use xlink:href="#OverpassNerdFontComplete-Italic-2d" x="785.999756"/>
     <use xlink:href="#OverpassNerdFontComplete-Italic-2d" x="825.299744"/>
     <use xlink:href="#OverpassNerdFontComplete-Italic-2d" x="864.599731"/>
     <use xlink:href="#OverpassNerdFontComplete-Italic-2d" x="903.899719"/>
     <use xlink:href="#OverpassNerdFontComplete-Italic-2d" x="943.199707"/>
     <use xlink:href="#OverpassNerdFontComplete-Italic-2d" x="982.499695"/>
     <use xlink:href="#OverpassNerdFontComplete-Italic-2d" x="1021.799683"/>
     <use xlink:href="#OverpassNerdFontComplete-Italic-2d" x="1061.09967"/>
     <use xlink:href="#OverpassNerdFontComplete-Italic-2d" x="1100.399658"/>
     <use xlink:href="#OverpassNerdFontComplete-Italic-2d" x="1139.699646"/>
     <use xlink:href="#OverpassNerdFontComplete-Italic-2d" x="1178.999634"/>
     <use xlink:href="#OverpassNerdFontComplete-Italic-2d" x="1218.299622"/>
     <use xlink:href="#OverpassNerdFontComplete-Italic-2d" x="1257.599609"/>
     <use xlink:href="#OverpassNerdFontComplete-Italic-2d" x="1296.899597"/>
     <use xlink:href="#OverpassNerdFontComplete-Italic-2d" x="1336.199585"/>
     <use xlink:href="#OverpassNerdFontComplete-Italic-2d" x="1375.499573"/>
     <use xlink:href="#OverpassNerdFontComplete-Italic-2d" x="1414.799561"/>
     <use xlink:href="#OverpassNerdFontComplete-Italic-2d" x="1454.099548"/>
     <use xlink:href="#OverpassNerdFontComplete-Italic-2d" x="1493.399536"/>
     <use xlink:href="#OverpassNerdFontComplete-Italic-2d" x="1532.699524"/>
     <use xlink:href="#OverpassNerdFontComplete-Italic-2d" x="1571.999512"/>
     <use xlink:href="#OverpassNerdFontComplete-Italic-2d" x="1611.2995"/>
     <use xlink:href="#OverpassNerdFontComplete-Italic-2d" x="1650.599487"/>
     <use xlink:href="#OverpassNerdFontComplete-Italic-2d" x="1689.899475"/>
     <use xlink:href="#OverpassNerdFontComplete-Italic-2d" x="1729.199463"/>
     <use xlink:href="#OverpassNerdFontComplete-Italic-2d" x="1768.499451"/>
    </g>
    <!-- * count not guaranteed to be too accurate -->
    <g transform="translate(664.790625 660.109031) scale(0.14 -0.14)">
     <defs>
      <path id="OverpassNerdFontComplete-Italic-2a" d="M 2272 2496 
L 2598 1888 
L 3053 2195 
L 2733 2790 
L 2445 3091 
L 2886 3117 
L 3578 3341 
L 3488 3834 
L 2829 3629 
L 2400 3347 
L 2598 3821 
L 2726 4550 
L 2214 4550 
L 2086 3814 
L 2106 3347 
L 1766 3616 
L 1171 3834 
L 941 3347 
L 1555 3117 
L 1958 3091 
L 1568 2790 
L 1062 2214 
L 1421 1888 
L 1939 2496 
L 2176 2950 
L 2272 2496 
z
" transform="scale(0.015625)"/>
      <path id="OverpassNerdFontComplete-Italic-61" d="M 2323 0 
L 2842 0 
L 3213 2118 
C 3232 2240 3245 2355 3245 2445 
C 3245 3149 2688 3347 2266 3347 
C 1811 3347 1395 3162 1101 2982 
L 1171 2528 
C 1440 2701 1850 2874 2208 2874 
C 2470 2874 2726 2758 2726 2381 
C 2726 2310 2714 2221 2694 2125 
L 2650 1875 
C 2490 1984 2227 2106 1856 2106 
C 1158 2106 486 1728 486 870 
C 486 294 864 -77 1446 -77 
C 1850 -77 2176 96 2368 269 
L 2323 0 
z
M 1562 397 
C 1197 397 1005 621 1005 922 
C 1005 1427 1414 1638 1850 1638 
C 2182 1638 2432 1491 2566 1395 
L 2470 826 
C 2266 614 1926 397 1562 397 
z
" transform="scale(0.015625)"/>
      <path id="OverpassNerdFontComplete-Italic-62" d="M 1907 -77 
C 2797 -77 3488 717 3488 2035 
C 3488 2842 3034 3347 2419 3347 
C 2048 3347 1766 3181 1587 3014 
L 1869 4621 
L 1293 4410 
L 518 0 
L 1050 0 
L 1101 294 
C 1235 115 1517 -77 1907 -77 
z
M 1869 429 
C 1549 429 1318 621 1203 851 
L 1485 2426 
C 1651 2650 1958 2848 2272 2848 
C 2701 2848 2944 2522 2944 1990 
C 2944 1126 2566 429 1869 429 
z
" transform="scale(0.015625)"/>
     </defs>
     <use xlink:href="#OverpassNerdFontComplete-Italic-2a"/>
     <use xlink:href="#OverpassNerdFontComplete-Italic-20" x="52.099991"/>
     <use xlink:href="#OverpassNerdFontComplete-Italic-63" x="74.199982"/>
     <use xlink:href="#OverpassNerdFontComplete-Italic-6f" x="121.999969"/>
     <use xlink:href="#OverpassNerdFontComplete-Italic-75" x="174.999954"/>
     <use xlink:href="#OverpassNerdFontComplete-Italic-6e" x="229.399948"/>
     <use xlink:href="#OverpassNerdFontComplete-Italic-74" x="283.799942"/>
     <use xlink:href="#OverpassNerdFontComplete-Italic-20" x="319.59993"/>
     <use xlink:href="#OverpassNerdFontComplete-Italic-6e" x="341.699921"/>
     <use xlink:href="#OverpassNerdFontComplete-Italic-6f" x="396.099915"/>
     <use xlink:href="#OverpassNerdFontComplete-Italic-74" x="449.099899"/>
     <use xlink:href="#OverpassNerdFontComplete-Italic-20" x="484.899887"/>
     <use xlink:href="#OverpassNerdFontComplete-Italic-67" x="506.999878"/>
     <use xlink:href="#OverpassNerdFontComplete-Italic-75" x="561.199875"/>
     <use xlink:href="#OverpassNerdFontComplete-Italic-61" x="615.599869"/>
     <use xlink:href="#OverpassNerdFontComplete-Italic-72" x="667.19986"/>
     <use xlink:href="#OverpassNerdFontComplete-Italic-61" x="705.199844"/>
     <use xlink:href="#OverpassNerdFontComplete-Italic-6e" x="756.799835"/>
     <use xlink:href="#OverpassNerdFontComplete-Italic-74" x="811.199829"/>
     <use xlink:href="#OverpassNerdFontComplete-Italic-65" x="846.999817"/>
     <use xlink:href="#OverpassNerdFontComplete-Italic-65" x="898.299805"/>
     <use xlink:href="#OverpassNerdFontComplete-Italic-64" x="949.599792"/>
     <use xlink:href="#OverpassNerdFontComplete-Italic-20" x="1003.799789"/>
     <use xlink:href="#OverpassNerdFontComplete-Italic-74" x="1025.89978"/>
     <use xlink:href="#OverpassNerdFontComplete-Italic-6f" x="1061.699768"/>
     <use xlink:href="#OverpassNerdFontComplete-Italic-20" x="1114.699753"/>
     <use xlink:href="#OverpassNerdFontComplete-Italic-62" x="1136.799744"/>
     <use xlink:href="#OverpassNerdFontComplete-Italic-65" x="1190.899734"/>
     <use xlink:href="#OverpassNerdFontComplete-Italic-20" x="1242.199722"/>
     <use xlink:href="#OverpassNerdFontComplete-Italic-74" x="1264.299713"/>
     <use xlink:href="#OverpassNerdFontComplete-Italic-6f" x="1300.099701"/>
     <use xlink:href="#OverpassNerdFontComplete-Italic-6f" x="1353.099686"/>
     <use xlink:href="#OverpassNerdFontComplete-Italic-20" x="1406.09967"/>
     <use xlink:href="#OverpassNerdFontComplete-Italic-61" x="1428.199661"/>
     <use xlink:href="#OverpassNerdFontComplete-Italic-63" x="1479.799652"/>
     <use xlink:href="#OverpassNerdFontComplete-Italic-63" x="1527.59964"/>
     <use xlink:href="#OverpassNerdFontComplete-Italic-75" x="1575.399628"/>
     <use xlink:href="#OverpassNerdFontComplete-Italic-72" x="1629.799622"/>
     <use xlink:href="#OverpassNerdFontComplete-Italic-61" x="1667.799606"/>
     <use xlink:href="#OverpassNerdFontComplete-Italic-74" x="1719.399597"/>
     <use xlink:href="#OverpassNerdFontComplete-Italic-65" x="1755.199585"/>
    </g>
    <!-- due to lack of character names in scripts -->
    <g transform="translate(674.90125 675.179156) scale(0.14 -0.14)">
     <defs>
      <path id="OverpassNerdFontComplete-Italic-6b" d="M 2304 2336 
L 3334 3270 
L 2675 3270 
L 1427 2125 
L 1869 4621 
L 1293 4410 
L 518 0 
L 1056 0 
L 1306 1421 
L 1882 1952 
L 2477 0 
L 3072 0 
L 2304 2336 
z
" transform="scale(0.015625)"/>
      <path id="OverpassNerdFontComplete-Italic-68" d="M 518 0 
L 1056 0 
L 1402 1978 
C 1523 2630 1882 2848 2285 2848 
C 2611 2848 2835 2675 2835 2259 
C 2835 2163 2816 2054 2803 1952 
L 2458 0 
L 2989 0 
L 3309 1824 
C 3347 2022 3366 2221 3366 2374 
C 3366 3014 3066 3347 2438 3347 
C 2093 3347 1792 3181 1568 2912 
L 1869 4621 
L 1293 4410 
L 518 0 
z
" transform="scale(0.015625)"/>
      <path id="OverpassNerdFontComplete-Italic-6d" d="M 518 0 
L 1056 0 
L 1414 2022 
C 1504 2554 1875 2848 2227 2848 
C 2534 2848 2733 2662 2733 2272 
C 2733 2195 2726 2106 2707 2016 
L 2355 0 
L 2906 0 
L 3264 2022 
C 3354 2554 3718 2848 4070 2848 
C 4371 2848 4570 2662 4570 2272 
C 4570 2189 4563 2106 4550 2016 
L 4192 0 
L 4742 0 
L 5120 2144 
C 5139 2240 5146 2330 5146 2413 
C 5146 3027 4717 3347 4218 3347 
C 3795 3347 3462 3168 3200 2854 
C 3078 3162 2803 3347 2438 3347 
C 2131 3347 1805 3213 1568 2957 
L 1626 3270 
L 1094 3270 
L 518 0 
z
" transform="scale(0.015625)"/>
     </defs>
     <use xlink:href="#OverpassNerdFontComplete-Italic-64"/>
     <use xlink:href="#OverpassNerdFontComplete-Italic-75" x="54.199997"/>
     <use xlink:href="#OverpassNerdFontComplete-Italic-65" x="108.599991"/>
     <use xlink:href="#OverpassNerdFontComplete-Italic-20" x="159.899979"/>
     <use xlink:href="#OverpassNerdFontComplete-Italic-74" x="181.999969"/>
     <use xlink:href="#OverpassNerdFontComplete-Italic-6f" x="217.799957"/>
     <use xlink:href="#OverpassNerdFontComplete-Italic-20" x="270.799942"/>
     <use xlink:href="#OverpassNerdFontComplete-Italic-6c" x="292.899933"/>
     <use xlink:href="#OverpassNerdFontComplete-Italic-61" x="318.399918"/>
     <use xlink:href="#OverpassNerdFontComplete-Italic-63" x="369.999908"/>
     <use xlink:href="#OverpassNerdFontComplete-Italic-6b" x="417.799896"/>
     <use xlink:href="#OverpassNerdFontComplete-Italic-20" x="468.099884"/>
     <use xlink:href="#OverpassNerdFontComplete-Italic-6f" x="490.199875"/>
     <use xlink:href="#OverpassNerdFontComplete-Italic-66" x="543.19986"/>
     <use xlink:href="#OverpassNerdFontComplete-Italic-20" x="575.099854"/>
     <use xlink:href="#OverpassNerdFontComplete-Italic-63" x="597.199844"/>
     <use xlink:href="#OverpassNerdFontComplete-Italic-68" x="644.999832"/>
     <use xlink:href="#OverpassNerdFontComplete-Italic-61" x="699.399826"/>
     <use xlink:href="#OverpassNerdFontComplete-Italic-72" x="750.999817"/>
     <use xlink:href="#OverpassNerdFontComplete-Italic-61" x="788.999802"/>
     <use xlink:href="#OverpassNerdFontComplete-Italic-63" x="840.599792"/>
     <use xlink:href="#OverpassNerdFontComplete-Italic-74" x="888.39978"/>
     <use xlink:href="#OverpassNerdFontComplete-Italic-65" x="924.199768"/>
     <use xlink:href="#OverpassNerdFontComplete-Italic-72" x="975.499756"/>
     <use xlink:href="#OverpassNerdFontComplete-Italic-20" x="1013.499741"/>
     <use xlink:href="#OverpassNerdFontComplete-Italic-6e" x="1035.599731"/>
     <use xlink:href="#OverpassNerdFontComplete-Italic-61" x="1089.999725"/>
     <use xlink:href="#OverpassNerdFontComplete-Italic-6d" x="1141.599716"/>
     <use xlink:href="#OverpassNerdFontComplete-Italic-65" x="1223.799698"/>
     <use xlink:href="#OverpassNerdFontComplete-Italic-73" x="1275.099686"/>
     <use xlink:href="#OverpassNerdFontComplete-Italic-20" x="1320.199677"/>
     <use xlink:href="#OverpassNerdFontComplete-Italic-69" x="1342.299667"/>
     <use xlink:href="#OverpassNerdFontComplete-Italic-6e" x="1366.899658"/>
     <use xlink:href="#OverpassNerdFontComplete-Italic-20" x="1421.299652"/>
     <use xlink:href="#OverpassNerdFontComplete-Italic-73" x="1443.399643"/>
     <use xlink:href="#OverpassNerdFontComplete-Italic-63" x="1488.499634"/>
     <use xlink:href="#OverpassNerdFontComplete-Italic-72" x="1536.299622"/>
     <use xlink:href="#OverpassNerdFontComplete-Italic-69" x="1574.299606"/>
     <use xlink:href="#OverpassNerdFontComplete-Italic-70" x="1598.899597"/>
     <use xlink:href="#OverpassNerdFontComplete-Italic-74" x="1653.399582"/>
     <use xlink:href="#OverpassNerdFontComplete-Italic-73" x="1689.19957"/>
    </g>
   </g>
   <g id="text_21">
    <!-- Number* of "YOU KNOW" in OBX-S3 (total 81 lines) -->
    <g transform="translate(83.689531 54.050781) scale(0.25 -0.25)">
     <defs>
      <path id="OverpassNerdFontComplete-Regular-4e" d="M 3904 0 
L 3904 4480 
L 3347 4480 
L 3347 1286 
C 3347 1184 3354 1075 3360 960 
C 3296 1082 3238 1184 3174 1293 
L 1190 4480 
L 627 4480 
L 627 0 
L 1184 0 
L 1184 3200 
C 1184 3302 1178 3418 1171 3514 
C 1229 3405 1293 3296 1350 3200 
L 3366 0 
L 3904 0 
z
" transform="scale(0.015625)"/>
      <path id="OverpassNerdFontComplete-Regular-6d" d="M 4365 0 
L 4922 0 
L 4922 2144 
C 4922 2938 4422 3347 3770 3347 
C 3347 3347 3014 3162 2822 2867 
C 2637 3187 2298 3347 1946 3347 
C 1600 3347 1286 3226 1088 2963 
L 1088 3270 
L 531 3270 
L 531 0 
L 1088 0 
L 1088 1990 
C 1088 2509 1357 2835 1792 2835 
C 2298 2835 2445 2432 2445 1984 
L 2445 0 
L 3002 0 
L 3002 1965 
C 3002 2483 3283 2835 3706 2835 
C 4211 2835 4365 2432 4365 1984 
L 4365 0 
z
" transform="scale(0.015625)"/>
      <path id="OverpassNerdFontComplete-Regular-62" d="M 1926 -77 
C 2758 -77 3264 531 3264 1638 
C 3264 2714 2720 3347 1907 3347 
C 1568 3347 1274 3194 1088 2989 
L 1088 4621 
L 531 4358 
L 531 0 
L 1088 0 
L 1088 282 
C 1280 96 1510 -77 1926 -77 
z
M 1850 442 
C 1542 442 1248 608 1088 883 
L 1088 2400 
C 1197 2586 1478 2835 1850 2835 
C 2406 2835 2694 2406 2694 1638 
C 2694 902 2413 442 1850 442 
z
" transform="scale(0.015625)"/>
      <path id="OverpassNerdFontComplete-Regular-72" d="M 531 0 
L 1088 0 
L 1088 1843 
C 1088 2586 1504 2797 1818 2797 
C 2042 2797 2182 2726 2285 2656 
L 2368 3181 
C 2253 3277 2074 3347 1862 3347 
C 1498 3347 1235 3168 1088 2842 
L 1088 3270 
L 531 3270 
L 531 0 
z
" transform="scale(0.015625)"/>
      <path id="OverpassNerdFontComplete-Regular-2a" d="M 1875 2496 
L 2317 1901 
L 2733 2214 
L 2310 2797 
L 1933 3110 
L 2400 3123 
L 3066 3341 
L 2899 3840 
L 2253 3629 
L 1843 3347 
L 1965 3821 
L 1965 4544 
L 1446 4544 
L 1446 3821 
L 1555 3347 
L 1152 3629 
L 512 3840 
L 346 3341 
L 1005 3123 
L 1466 3110 
L 1101 2797 
L 678 2214 
L 1094 1901 
L 1530 2496 
L 1702 2970 
L 1875 2496 
z
" transform="scale(0.015625)"/>
      <path id="OverpassNerdFontComplete-Regular-20" transform="scale(0.015625)"/>
      <path id="OverpassNerdFontComplete-Regular-66" d="M 1274 2784 
L 2035 2784 
L 2035 3270 
L 1274 3270 
L 1274 3718 
C 1274 3891 1299 4058 1568 4058 
C 1728 4058 1869 4013 2035 3936 
L 2035 4403 
C 1869 4493 1677 4557 1427 4557 
C 1075 4557 717 4384 717 3814 
L 717 3270 
L 211 3270 
L 211 2784 
L 717 2784 
L 717 0 
L 1274 0 
L 1274 2784 
z
" transform="scale(0.015625)"/>
      <path id="OverpassNerdFontComplete-Regular-22" d="M 339 4480 
L 454 2733 
L 909 2733 
L 1030 4480 
L 339 4480 
z
M 1542 4480 
L 1664 2733 
L 2118 2733 
L 2240 4480 
L 1542 4480 
z
" transform="scale(0.015625)"/>
      <path id="OverpassNerdFontComplete-Regular-59" d="M 1779 0 
L 2336 0 
L 2336 1773 
L 3846 4480 
L 3238 4480 
L 2054 2304 
L 883 4480 
L 256 4480 
L 1779 1760 
L 1779 0 
z
" transform="scale(0.015625)"/>
      <path id="OverpassNerdFontComplete-Regular-4f" d="M 2336 -77 
C 3750 -77 4243 1133 4243 2240 
C 4243 3347 3750 4557 2336 4557 
C 928 4557 435 3347 435 2240 
C 435 1133 928 -77 2336 -77 
z
M 2336 448 
C 1357 448 1011 1363 1011 2240 
C 1011 3053 1357 4038 2336 4038 
C 3322 4038 3661 3117 3661 2240 
C 3661 1434 3322 448 2336 448 
z
" transform="scale(0.015625)"/>
      <path id="OverpassNerdFontComplete-Regular-55" d="M 2202 -77 
C 3162 -77 3814 397 3814 1683 
L 3814 4480 
L 3258 4480 
L 3258 1683 
C 3258 698 2778 448 2202 448 
C 1626 448 1152 698 1152 1683 
L 1152 4480 
L 595 4480 
L 595 1683 
C 595 390 1261 -77 2202 -77 
z
" transform="scale(0.015625)"/>
      <path id="OverpassNerdFontComplete-Regular-4b" d="M 3277 0 
L 3923 0 
L 2323 2931 
L 3558 4480 
L 2931 4480 
L 1184 2285 
L 1184 4480 
L 627 4480 
L 627 0 
L 1184 0 
L 1184 1530 
L 1946 2464 
L 3277 0 
z
" transform="scale(0.015625)"/>
      <path id="OverpassNerdFontComplete-Regular-57" d="M 1235 0 
L 1690 0 
L 2554 3059 
C 2605 3245 2637 3373 2662 3501 
C 2688 3373 2726 3245 2778 3059 
L 3642 0 
L 4083 0 
L 5056 4480 
L 4486 4480 
L 3878 1568 
C 3840 1382 3814 1248 3795 1126 
C 3776 1248 3744 1376 3693 1562 
L 2893 4480 
L 2451 4480 
L 1658 1555 
C 1606 1357 1562 1216 1536 1082 
C 1517 1216 1491 1363 1453 1562 
L 902 4480 
L 320 4480 
L 1235 0 
z
" transform="scale(0.015625)"/>
      <path id="OverpassNerdFontComplete-Regular-42" d="M 627 4480 
L 627 0 
L 2317 0 
C 3411 0 3770 678 3770 1286 
C 3770 1798 3469 2202 2950 2362 
C 3366 2541 3610 2886 3610 3296 
C 3610 3891 3277 4480 2214 4480 
L 627 4480 
z
M 2106 2579 
L 1184 2579 
L 1184 3974 
L 2246 3974 
C 2918 3974 3059 3616 3059 3290 
C 3059 2861 2739 2579 2106 2579 
z
M 2381 512 
L 1184 512 
L 1184 2074 
L 2176 2074 
C 3014 2074 3219 1677 3219 1248 
C 3219 890 3040 512 2381 512 
z
" transform="scale(0.015625)"/>
      <path id="OverpassNerdFontComplete-Regular-58" d="M 2957 0 
L 3584 0 
L 2240 2349 
L 3469 4480 
L 2854 4480 
L 1946 2861 
L 1024 4480 
L 397 4480 
L 1632 2317 
L 301 0 
L 922 0 
L 1926 1811 
L 2957 0 
z
" transform="scale(0.015625)"/>
      <path id="OverpassNerdFontComplete-Regular-2d" d="M 531 1638 
L 2029 1638 
L 2029 2176 
L 531 2176 
L 531 1638 
z
" transform="scale(0.015625)"/>
      <path id="OverpassNerdFontComplete-Regular-53" d="M 1933 -77 
C 2778 -77 3405 390 3405 1216 
C 3405 2099 2675 2426 2048 2662 
C 1542 2848 1082 3034 1082 3450 
C 1082 3814 1370 4038 1843 4038 
C 2285 4038 2573 3834 2682 3584 
L 3194 3757 
C 3059 4218 2592 4557 1882 4557 
C 1011 4557 506 4051 506 3450 
C 506 2669 1190 2381 1818 2150 
C 2342 1958 2829 1722 2829 1203 
C 2829 710 2483 448 1946 448 
C 1453 448 1075 717 896 1114 
L 371 922 
C 570 346 1152 -77 1933 -77 
z
" transform="scale(0.015625)"/>
      <path id="OverpassNerdFontComplete-Regular-28" d="M 1280 -832 
L 1818 -832 
C 1619 -544 1050 390 1050 1818 
C 1050 3232 1651 4269 1888 4557 
L 1350 4557 
C 922 4045 499 3142 499 1818 
C 499 493 890 -320 1280 -832 
z
" transform="scale(0.015625)"/>
      <path id="OverpassNerdFontComplete-Regular-61" d="M 2406 0 
L 2931 0 
L 2931 2170 
C 2931 3174 2278 3347 1766 3347 
C 1274 3347 845 3174 582 3002 
L 742 2534 
C 986 2707 1331 2861 1696 2861 
C 2118 2861 2406 2701 2406 2125 
L 2406 1894 
C 2138 2048 1850 2106 1562 2106 
C 928 2106 339 1779 339 1024 
C 339 294 813 -77 1478 -77 
C 1869 -77 2189 96 2406 301 
L 2406 0 
z
M 1562 416 
C 1114 416 864 659 864 1024 
C 864 1440 1216 1626 1638 1626 
C 1907 1626 2208 1530 2406 1408 
L 2406 845 
C 2221 627 1926 416 1562 416 
z
" transform="scale(0.015625)"/>
      <path id="OverpassNerdFontComplete-Regular-6c" d="M 563 0 
L 1120 0 
L 1120 4621 
L 563 4358 
L 563 0 
z
" transform="scale(0.015625)"/>
      <path id="OverpassNerdFontComplete-Regular-29" d="M 378 -832 
L 915 -832 
C 1306 -320 1696 493 1696 1818 
C 1696 3142 1274 4045 845 4557 
L 307 4557 
C 544 4269 1146 3232 1146 1818 
C 1146 390 576 -544 378 -832 
z
" transform="scale(0.015625)"/>
     </defs>
     <use xlink:href="#OverpassNerdFontComplete-Regular-4e"/>
     <use xlink:href="#OverpassNerdFontComplete-Regular-75" x="70.799988"/>
     <use xlink:href="#OverpassNerdFontComplete-Regular-6d" x="127.099976"/>
     <use xlink:href="#OverpassNerdFontComplete-Regular-62" x="211.699966"/>
     <use xlink:href="#OverpassNerdFontComplete-Regular-65" x="267.899963"/>
     <use xlink:href="#OverpassNerdFontComplete-Regular-72" x="321.699951"/>
     <use xlink:href="#OverpassNerdFontComplete-Regular-2a" x="360.599945"/>
     <use xlink:href="#OverpassNerdFontComplete-Regular-20" x="413.899933"/>
     <use xlink:href="#OverpassNerdFontComplete-Regular-6f" x="437.399918"/>
     <use xlink:href="#OverpassNerdFontComplete-Regular-66" x="493.199905"/>
     <use xlink:href="#OverpassNerdFontComplete-Regular-20" x="526.499893"/>
     <use xlink:href="#OverpassNerdFontComplete-Regular-22" x="549.999878"/>
     <use xlink:href="#OverpassNerdFontComplete-Regular-59" x="590.299866"/>
     <use xlink:href="#OverpassNerdFontComplete-Regular-4f" x="654.399857"/>
     <use xlink:href="#OverpassNerdFontComplete-Regular-55" x="727.399841"/>
     <use xlink:href="#OverpassNerdFontComplete-Regular-20" x="796.299835"/>
     <use xlink:href="#OverpassNerdFontComplete-Regular-4b" x="819.79982"/>
     <use xlink:href="#OverpassNerdFontComplete-Regular-4e" x="885.799805"/>
     <use xlink:href="#OverpassNerdFontComplete-Regular-4f" x="956.599792"/>
     <use xlink:href="#OverpassNerdFontComplete-Regular-57" x="1029.599777"/>
     <use xlink:href="#OverpassNerdFontComplete-Regular-22" x="1113.599762"/>
     <use xlink:href="#OverpassNerdFontComplete-Regular-20" x="1153.89975"/>
     <use xlink:href="#OverpassNerdFontComplete-Regular-69" x="1177.399734"/>
     <use xlink:href="#OverpassNerdFontComplete-Regular-6e" x="1202.799728"/>
     <use xlink:href="#OverpassNerdFontComplete-Regular-20" x="1259.099716"/>
     <use xlink:href="#OverpassNerdFontComplete-Regular-4f" x="1282.599701"/>
     <use xlink:href="#OverpassNerdFontComplete-Regular-42" x="1355.599686"/>
     <use xlink:href="#OverpassNerdFontComplete-Regular-58" x="1421.199677"/>
     <use xlink:href="#OverpassNerdFontComplete-Regular-2d" x="1481.799667"/>
     <use xlink:href="#OverpassNerdFontComplete-Regular-53" x="1521.699661"/>
     <use xlink:href="#OverpassNerdFontComplete-Regular-33" x="1581.599655"/>
     <use xlink:href="#OverpassNerdFontComplete-Regular-20" x="1641.799652"/>
     <use xlink:href="#OverpassNerdFontComplete-Regular-28" x="1665.299637"/>
     <use xlink:href="#OverpassNerdFontComplete-Regular-74" x="1699.599625"/>
     <use xlink:href="#OverpassNerdFontComplete-Regular-6f" x="1736.999619"/>
     <use xlink:href="#OverpassNerdFontComplete-Regular-74" x="1792.799606"/>
     <use xlink:href="#OverpassNerdFontComplete-Regular-61" x="1830.1996"/>
     <use xlink:href="#OverpassNerdFontComplete-Regular-6c" x="1882.799591"/>
     <use xlink:href="#OverpassNerdFontComplete-Regular-20" x="1908.999588"/>
     <use xlink:href="#OverpassNerdFontComplete-Regular-38" x="1932.499573"/>
     <use xlink:href="#OverpassNerdFontComplete-Regular-31" x="1993.599564"/>
     <use xlink:href="#OverpassNerdFontComplete-Regular-20" x="2030.899551"/>
     <use xlink:href="#OverpassNerdFontComplete-Regular-6c" x="2054.399536"/>
     <use xlink:href="#OverpassNerdFontComplete-Regular-69" x="2080.599533"/>
     <use xlink:href="#OverpassNerdFontComplete-Regular-6e" x="2105.999527"/>
     <use xlink:href="#OverpassNerdFontComplete-Regular-65" x="2162.299515"/>
     <use xlink:href="#OverpassNerdFontComplete-Regular-73" x="2216.099503"/>
     <use xlink:href="#OverpassNerdFontComplete-Regular-29" x="2262.999496"/>
    </g>
   </g>
   <g id="legend_1">
    <g id="patch_45">
     <path d="M 783.13875 598.650781 
L 921.849687 598.650781 
Q 923.849687 598.650781 923.849687 596.650781 
L 923.849687 524.599531 
Q 923.849687 522.599531 921.849687 522.599531 
L 783.13875 522.599531 
Q 781.13875 522.599531 781.13875 524.599531 
L 781.13875 596.650781 
Q 781.13875 598.650781 783.13875 598.650781 
z
" style="fill: #ffffff; opacity: 0.8; stroke: #000000; stroke-width: 1.5; stroke-linejoin: miter"/>
    </g>
    <g id="text_22">
     <!-- Position in sentence -->
     <g transform="translate(798.313281 535.263906) scale(0.12 -0.12)">
      <defs>
       <path id="OverpassNerdFontComplete-Regular-50" d="M 627 0 
L 1184 0 
L 1184 1798 
L 2342 1798 
C 3392 1798 3789 2522 3789 3136 
C 3789 3802 3430 4480 2342 4480 
L 627 4480 
L 627 0 
z
M 2381 2317 
L 1184 2317 
L 1184 3962 
L 2381 3962 
C 3053 3962 3232 3488 3232 3136 
C 3232 2752 3014 2317 2381 2317 
z
" transform="scale(0.015625)"/>
      </defs>
      <use xlink:href="#OverpassNerdFontComplete-Regular-50"/>
      <use xlink:href="#OverpassNerdFontComplete-Regular-6f" x="62.999985"/>
      <use xlink:href="#OverpassNerdFontComplete-Regular-73" x="118.799973"/>
      <use xlink:href="#OverpassNerdFontComplete-Regular-69" x="165.699966"/>
      <use xlink:href="#OverpassNerdFontComplete-Regular-74" x="191.09996"/>
      <use xlink:href="#OverpassNerdFontComplete-Regular-69" x="228.499954"/>
      <use xlink:href="#OverpassNerdFontComplete-Regular-6f" x="253.899948"/>
      <use xlink:href="#OverpassNerdFontComplete-Regular-6e" x="309.699936"/>
      <use xlink:href="#OverpassNerdFontComplete-Regular-20" x="365.999924"/>
      <use xlink:href="#OverpassNerdFontComplete-Regular-69" x="389.499908"/>
      <use xlink:href="#OverpassNerdFontComplete-Regular-6e" x="414.899902"/>
      <use xlink:href="#OverpassNerdFontComplete-Regular-20" x="471.19989"/>
      <use xlink:href="#OverpassNerdFontComplete-Regular-73" x="494.699875"/>
      <use xlink:href="#OverpassNerdFontComplete-Regular-65" x="541.599869"/>
      <use xlink:href="#OverpassNerdFontComplete-Regular-6e" x="595.399857"/>
      <use xlink:href="#OverpassNerdFontComplete-Regular-74" x="651.699844"/>
      <use xlink:href="#OverpassNerdFontComplete-Regular-65" x="689.099838"/>
      <use xlink:href="#OverpassNerdFontComplete-Regular-6e" x="742.899826"/>
      <use xlink:href="#OverpassNerdFontComplete-Regular-63" x="799.199814"/>
      <use xlink:href="#OverpassNerdFontComplete-Regular-65" x="849.199799"/>
     </g>
    </g>
    <g id="patch_46">
     <path d="M 785.13875 549.908594 
L 805.13875 549.908594 
L 805.13875 542.908594 
L 785.13875 542.908594 
z
" style="fill: #a8d3b6"/>
    </g>
    <g id="text_23">
     <!-- only start (total = 27) -->
     <g transform="translate(813.13875 549.908594) scale(0.1 -0.1)">
      <defs>
       <path id="OverpassNerdFontComplete-Regular-79" d="M 922 -1242 
L 1485 -1242 
L 3181 3270 
L 2611 3270 
L 1786 1043 
C 1741 928 1715 838 1683 730 
C 1651 838 1626 928 1581 1043 
L 768 3270 
L 211 3270 
L 1421 83 
L 922 -1242 
z
" transform="scale(0.015625)"/>
       <path id="OverpassNerdFontComplete-Regular-3d" d="M 563 2490 
L 3571 2490 
L 3571 3027 
L 563 3027 
L 563 2490 
z
M 563 1363 
L 3571 1363 
L 3571 1894 
L 563 1894 
L 563 1363 
z
" transform="scale(0.015625)"/>
      </defs>
      <use xlink:href="#OverpassNerdFontComplete-Regular-6f"/>
      <use xlink:href="#OverpassNerdFontComplete-Regular-6e" x="55.799988"/>
      <use xlink:href="#OverpassNerdFontComplete-Regular-6c" x="112.099976"/>
      <use xlink:href="#OverpassNerdFontComplete-Regular-79" x="138.299973"/>
      <use xlink:href="#OverpassNerdFontComplete-Regular-20" x="191.299957"/>
      <use xlink:href="#OverpassNerdFontComplete-Regular-73" x="214.799942"/>
      <use xlink:href="#OverpassNerdFontComplete-Regular-74" x="261.699936"/>
      <use xlink:href="#OverpassNerdFontComplete-Regular-61" x="299.09993"/>
      <use xlink:href="#OverpassNerdFontComplete-Regular-72" x="351.699921"/>
      <use xlink:href="#OverpassNerdFontComplete-Regular-74" x="390.599915"/>
      <use xlink:href="#OverpassNerdFontComplete-Regular-20" x="427.999908"/>
      <use xlink:href="#OverpassNerdFontComplete-Regular-28" x="451.499893"/>
      <use xlink:href="#OverpassNerdFontComplete-Regular-74" x="485.799881"/>
      <use xlink:href="#OverpassNerdFontComplete-Regular-6f" x="523.199875"/>
      <use xlink:href="#OverpassNerdFontComplete-Regular-74" x="578.999863"/>
      <use xlink:href="#OverpassNerdFontComplete-Regular-61" x="616.399857"/>
      <use xlink:href="#OverpassNerdFontComplete-Regular-6c" x="668.999847"/>
      <use xlink:href="#OverpassNerdFontComplete-Regular-20" x="695.199844"/>
      <use xlink:href="#OverpassNerdFontComplete-Regular-3d" x="718.699829"/>
      <use xlink:href="#OverpassNerdFontComplete-Regular-20" x="783.199814"/>
      <use xlink:href="#OverpassNerdFontComplete-Regular-32" x="806.699799"/>
      <use xlink:href="#OverpassNerdFontComplete-Regular-37" x="867.899796"/>
      <use xlink:href="#OverpassNerdFontComplete-Regular-29" x="920.099792"/>
     </g>
    </g>
    <g id="patch_47">
     <path d="M 785.13875 564.149219 
L 805.13875 564.149219 
L 805.13875 557.149219 
L 785.13875 557.149219 
z
" style="fill: #51a9b4"/>
    </g>
    <g id="text_24">
     <!-- only middle (total = 15) -->
     <g transform="translate(813.13875 564.149219) scale(0.1 -0.1)">
      <use xlink:href="#OverpassNerdFontComplete-Regular-6f"/>
      <use xlink:href="#OverpassNerdFontComplete-Regular-6e" x="55.799988"/>
      <use xlink:href="#OverpassNerdFontComplete-Regular-6c" x="112.099976"/>
      <use xlink:href="#OverpassNerdFontComplete-Regular-79" x="138.299973"/>
      <use xlink:href="#OverpassNerdFontComplete-Regular-20" x="191.299957"/>
      <use xlink:href="#OverpassNerdFontComplete-Regular-6d" x="214.799942"/>
      <use xlink:href="#OverpassNerdFontComplete-Regular-69" x="299.399933"/>
      <use xlink:href="#OverpassNerdFontComplete-Regular-64" x="324.799927"/>
      <use xlink:href="#OverpassNerdFontComplete-Regular-64" x="380.999924"/>
      <use xlink:href="#OverpassNerdFontComplete-Regular-6c" x="437.199921"/>
      <use xlink:href="#OverpassNerdFontComplete-Regular-65" x="463.399918"/>
      <use xlink:href="#OverpassNerdFontComplete-Regular-20" x="517.199905"/>
      <use xlink:href="#OverpassNerdFontComplete-Regular-28" x="540.69989"/>
      <use xlink:href="#OverpassNerdFontComplete-Regular-74" x="574.999878"/>
      <use xlink:href="#OverpassNerdFontComplete-Regular-6f" x="612.399872"/>
      <use xlink:href="#OverpassNerdFontComplete-Regular-74" x="668.19986"/>
      <use xlink:href="#OverpassNerdFontComplete-Regular-61" x="705.599854"/>
      <use xlink:href="#OverpassNerdFontComplete-Regular-6c" x="758.199844"/>
      <use xlink:href="#OverpassNerdFontComplete-Regular-20" x="784.399841"/>
      <use xlink:href="#OverpassNerdFontComplete-Regular-3d" x="807.899826"/>
      <use xlink:href="#OverpassNerdFontComplete-Regular-20" x="872.399811"/>
      <use xlink:href="#OverpassNerdFontComplete-Regular-31" x="895.899796"/>
      <use xlink:href="#OverpassNerdFontComplete-Regular-35" x="933.199783"/>
      <use xlink:href="#OverpassNerdFontComplete-Regular-29" x="995.299774"/>
     </g>
    </g>
    <g id="patch_48">
     <path d="M 785.13875 578.389844 
L 805.13875 578.389844 
L 805.13875 571.389844 
L 785.13875 571.389844 
z
" style="fill: #336097"/>
    </g>
    <g id="text_25">
     <!-- only end (total = 35) -->
     <g transform="translate(813.13875 578.389844) scale(0.1 -0.1)">
      <use xlink:href="#OverpassNerdFontComplete-Regular-6f"/>
      <use xlink:href="#OverpassNerdFontComplete-Regular-6e" x="55.799988"/>
      <use xlink:href="#OverpassNerdFontComplete-Regular-6c" x="112.099976"/>
      <use xlink:href="#OverpassNerdFontComplete-Regular-79" x="138.299973"/>
      <use xlink:href="#OverpassNerdFontComplete-Regular-20" x="191.299957"/>
      <use xlink:href="#OverpassNerdFontComplete-Regular-65" x="214.799942"/>
      <use xlink:href="#OverpassNerdFontComplete-Regular-6e" x="268.59993"/>
      <use xlink:href="#OverpassNerdFontComplete-Regular-64" x="324.899918"/>
      <use xlink:href="#OverpassNerdFontComplete-Regular-20" x="381.099915"/>
      <use xlink:href="#OverpassNerdFontComplete-Regular-28" x="404.599899"/>
      <use xlink:href="#OverpassNerdFontComplete-Regular-74" x="438.899887"/>
      <use xlink:href="#OverpassNerdFontComplete-Regular-6f" x="476.299881"/>
      <use xlink:href="#OverpassNerdFontComplete-Regular-74" x="532.099869"/>
      <use xlink:href="#OverpassNerdFontComplete-Regular-61" x="569.499863"/>
      <use xlink:href="#OverpassNerdFontComplete-Regular-6c" x="622.099854"/>
      <use xlink:href="#OverpassNerdFontComplete-Regular-20" x="648.29985"/>
      <use xlink:href="#OverpassNerdFontComplete-Regular-3d" x="671.799835"/>
      <use xlink:href="#OverpassNerdFontComplete-Regular-20" x="736.29982"/>
      <use xlink:href="#OverpassNerdFontComplete-Regular-33" x="759.799805"/>
      <use xlink:href="#OverpassNerdFontComplete-Regular-35" x="819.999802"/>
      <use xlink:href="#OverpassNerdFontComplete-Regular-29" x="882.099792"/>
     </g>
    </g>
    <g id="patch_49">
     <path d="M 785.13875 592.630469 
L 805.13875 592.630469 
L 805.13875 585.630469 
L 785.13875 585.630469 
z
" style="fill: #e57aa5"/>
    </g>
    <g id="text_26">
     <!-- at least twice (total = 4) -->
     <g transform="translate(813.13875 592.630469) scale(0.1 -0.1)">
      <defs>
       <path id="OverpassNerdFontComplete-Regular-77" d="M 1082 0 
L 1581 0 
L 2170 1939 
C 2208 2067 2253 2240 2285 2368 
C 2317 2240 2368 2067 2406 1939 
L 3002 0 
L 3501 0 
L 4339 3270 
L 3789 3270 
L 3296 1075 
C 3270 941 3245 826 3226 717 
L 3136 1075 
L 2522 3270 
L 2061 3270 
L 1446 1075 
C 1414 954 1382 838 1363 730 
C 1344 838 1318 947 1293 1075 
L 794 3270 
L 243 3270 
L 1082 0 
z
" transform="scale(0.015625)"/>
      </defs>
      <use xlink:href="#OverpassNerdFontComplete-Regular-61"/>
      <use xlink:href="#OverpassNerdFontComplete-Regular-74" x="52.599991"/>
      <use xlink:href="#OverpassNerdFontComplete-Regular-20" x="89.999985"/>
      <use xlink:href="#OverpassNerdFontComplete-Regular-6c" x="113.499969"/>
      <use xlink:href="#OverpassNerdFontComplete-Regular-65" x="139.699966"/>
      <use xlink:href="#OverpassNerdFontComplete-Regular-61" x="193.499954"/>
      <use xlink:href="#OverpassNerdFontComplete-Regular-73" x="246.099945"/>
      <use xlink:href="#OverpassNerdFontComplete-Regular-74" x="292.999939"/>
      <use xlink:href="#OverpassNerdFontComplete-Regular-20" x="330.399933"/>
      <use xlink:href="#OverpassNerdFontComplete-Regular-74" x="353.899918"/>
      <use xlink:href="#OverpassNerdFontComplete-Regular-77" x="391.299911"/>
      <use xlink:href="#OverpassNerdFontComplete-Regular-69" x="462.799896"/>
      <use xlink:href="#OverpassNerdFontComplete-Regular-63" x="488.19989"/>
      <use xlink:href="#OverpassNerdFontComplete-Regular-65" x="538.199875"/>
      <use xlink:href="#OverpassNerdFontComplete-Regular-20" x="591.999863"/>
      <use xlink:href="#OverpassNerdFontComplete-Regular-28" x="615.499847"/>
      <use xlink:href="#OverpassNerdFontComplete-Regular-74" x="649.799835"/>
      <use xlink:href="#OverpassNerdFontComplete-Regular-6f" x="687.199829"/>
      <use xlink:href="#OverpassNerdFontComplete-Regular-74" x="742.999817"/>
      <use xlink:href="#OverpassNerdFontComplete-Regular-61" x="780.399811"/>
      <use xlink:href="#OverpassNerdFontComplete-Regular-6c" x="832.999802"/>
      <use xlink:href="#OverpassNerdFontComplete-Regular-20" x="859.199799"/>
      <use xlink:href="#OverpassNerdFontComplete-Regular-3d" x="882.699783"/>
      <use xlink:href="#OverpassNerdFontComplete-Regular-20" x="947.199768"/>
      <use xlink:href="#OverpassNerdFontComplete-Regular-34" x="970.699753"/>
      <use xlink:href="#OverpassNerdFontComplete-Regular-29" x="1032.799744"/>
     </g>
    </g>
   </g>
  </g>
 </g>
 <defs>
  <clipPath id="p539d9b97c6">
   <rect x="91.849688" y="87.230781" width="558" height="543.6"/>
  </clipPath>
 </defs>
</svg>
