season,episode,script_flash,script_zoom
1,2,0,0
2,2,2,0
5,10,0,0
2,19,8,0
3,8,4,0
5,1,0,11
1,7,3,0
4,3,1,0
1,1,0,0
4,8,0,0
5,3,0,1
2,22,1,0
5,5,0,0
4,21,0,0
4,5,0,0
1,9,3,0
4,11,0,0
5,4,0,1
2,17,0,0
3,4,2,0
3,15,3,0
1,13,0,0
2,15,3,0
5,12,0,0
4,17,1,0
5,6,0,0
4,19,0,0
4,24,0,0
1,4,1,0
2,5,3,0
4,13,0,0
2,7,3,0
2,11,0,0
5,13,0,0
2,16,4,0
4,15,0,0
3,10,4,0
3,12,2,0
2,13,3,1
1,12,6,0
5,11,0,0
2,3,4,0
3,3,0,0
2,1,2,0
2,20,0,0
4,22,0,0
5,7,0,0
1,11,10,0
4,6,0,0
2,10,2,0
3,18,0,0
2,14,6,0
4,12,0,0
2,12,3,0
4,23,0,0
3,19,2,0
1,3,2,0
2,4,5,0
4,10,0,0
2,18,0,0
2,6,1,0
3,11,1,0
4,16,0,0
1,8,3,0
3,16,2,0
4,1,0,0
3,9,13,0
4,2,0,0
1,5,5,0
4,20,0,0
4,7,3,0
3,6,1,0
4,4,0,0
3,5,6,0
3,2,6,0
4,9,22,0
3,13,3,0
1,10,6,0
4,18,0,0
2,21,6,0
5,2,0,8
1,6,3,0
4,14,0,0
5,9,1,0
2,8,1,0
2,9,10,0
5,8,0,0
3,17,4,0
3,7,1,0
3,14,3,1
3,1,12,0
